%YAML 1.1
%TAG !u! tag:unity3d.com,2011:
--- !u!29 &1
SceneSettings:
  m_ObjectHideFlags: 0
  m_PVSData: 
  m_PVSObjectsArray: []
  m_PVSPortalsArray: []
  m_OcclusionBakeSettings:
    smallestOccluder: 5
    smallestHole: .25
    backfaceThreshold: 100
--- !u!104 &2
RenderSettings:
  m_ObjectHideFlags: 0
  serializedVersion: 6
  m_Fog: 0
  m_FogColor: {r: .5, g: .5, b: .5, a: 1}
  m_FogMode: 3
  m_FogDensity: .00999999978
  m_LinearFogStart: 0
  m_LinearFogEnd: 300
  m_AmbientSkyColor: {r: .200000003, g: .200000003, b: .200000003, a: 1}
  m_AmbientEquatorColor: {r: .200000003, g: .200000003, b: .200000003, a: 1}
  m_AmbientGroundColor: {r: .200000003, g: .200000003, b: .200000003, a: 1}
  m_AmbientIntensity: 1
  m_AmbientMode: 3
  m_SkyboxMaterial: {fileID: 0}
  m_HaloStrength: .5
  m_FlareStrength: 1
  m_FlareFadeSpeed: 3
  m_HaloTexture: {fileID: 0}
  m_SpotCookie: {fileID: 10001, guid: 0000000000000000e000000000000000, type: 0}
  m_DefaultReflectionMode: 0
  m_DefaultReflectionResolution: 128
  m_ReflectionBounces: 1
  m_ReflectionIntensity: 1
  m_CustomReflection: {fileID: 0}
  m_Sun: {fileID: 0}
--- !u!157 &4
LightmapSettings:
  m_ObjectHideFlags: 0
  serializedVersion: 5
  m_GIWorkflowMode: 1
  m_LightmapsMode: 1
  m_GISettings:
    serializedVersion: 2
    m_BounceScale: 1
    m_IndirectOutputScale: 1
    m_AlbedoBoost: 1
    m_TemporalCoherenceThreshold: 1
    m_EnvironmentLightingMode: 0
    m_EnableBakedLightmaps: 1
    m_EnableRealtimeLightmaps: 0
  m_LightmapEditorSettings:
    serializedVersion: 3
    m_Resolution: 1
    m_BakeResolution: 50
    m_TextureWidth: 1024
    m_TextureHeight: 1024
    m_AOMaxDistance: 1
    m_Padding: 2
    m_CompAOExponent: 0
    m_LightmapParameters: {fileID: 0}
    m_TextureCompression: 0
    m_FinalGather: 0
    m_FinalGatherRayCount: 1024
    m_ReflectionCompression: 2
  m_LightmapSnapshot: {fileID: 0}
  m_RuntimeCPUUsage: 25
--- !u!196 &5
NavMeshSettings:
  serializedVersion: 2
  m_ObjectHideFlags: 0
  m_BuildSettings:
    serializedVersion: 2
    agentRadius: .5
    agentHeight: 2
    agentSlope: 45
    agentClimb: .400000006
    ledgeDropHeight: 0
    maxJumpAcrossDistance: 0
    accuratePlacement: 0
    minRegionArea: 2
    cellSize: .166666657
    manualCellSize: 0
  m_NavMeshData: {fileID: 0}
--- !u!1 &120694187
GameObject:
  m_ObjectHideFlags: 0
  m_PrefabParentObject: {fileID: 0}
  m_PrefabInternal: {fileID: 0}
  serializedVersion: 4
  m_Component:
  - 4: {fileID: 120694189}
  - 108: {fileID: 120694188}
  m_Layer: 0
  m_Name: Directional light
  m_TagString: Untagged
  m_Icon: {fileID: 0}
  m_NavMeshLayer: 0
  m_StaticEditorFlags: 0
  m_IsActive: 1
--- !u!108 &120694188
Light:
  m_ObjectHideFlags: 0
  m_PrefabParentObject: {fileID: 0}
  m_PrefabInternal: {fileID: 0}
  m_GameObject: {fileID: 120694187}
  m_Enabled: 1
  serializedVersion: 6
  m_Type: 1
  m_Color: {r: 1, g: 1, b: 1, a: 1}
  m_Intensity: .75999999
  m_Range: 10
  m_SpotAngle: 30
  m_CookieSize: 10
  m_Shadows:
    m_Type: 2
    m_Resolution: -1
    m_Strength: .442999989
    m_Bias: .0500000007
    m_NormalBias: .400000006
  m_Cookie: {fileID: 0}
  m_DrawHalo: 0
  m_Flare: {fileID: 0}
  m_RenderMode: 0
  m_CullingMask:
    serializedVersion: 2
    m_Bits: 4294967295
  m_Lightmapping: 1
  m_BounceIntensity: 1
  m_ShadowRadius: 0
  m_ShadowAngle: 0
  m_AreaSize: {x: 1, y: 1}
--- !u!4 &120694189
Transform:
  m_ObjectHideFlags: 0
  m_PrefabParentObject: {fileID: 0}
  m_PrefabInternal: {fileID: 0}
  m_GameObject: {fileID: 120694187}
  m_LocalRotation: {x: .0970528945, y: -.430092394, z: .855938673, w: .270130277}
  m_LocalPosition: {x: 1.79072332, y: 3.98761344, z: -.843651533}
  m_LocalScale: {x: 1, y: 1, z: 1}
  m_Children: []
  m_Father: {fileID: 0}
  m_RootOrder: 0
--- !u!1001 &272997015
Prefab:
  m_ObjectHideFlags: 0
  serializedVersion: 2
  m_Modification:
    m_TransformParent: {fileID: 0}
    m_Modifications:
    - target: {fileID: 478072, guid: 6f27b28f9c63244ab85ad844b86ababf, type: 2}
      propertyPath: m_LocalPosition.x
      value: 0
      objectReference: {fileID: 0}
    - target: {fileID: 478072, guid: 6f27b28f9c63244ab85ad844b86ababf, type: 2}
      propertyPath: m_LocalPosition.y
      value: 0
      objectReference: {fileID: 0}
    - target: {fileID: 478072, guid: 6f27b28f9c63244ab85ad844b86ababf, type: 2}
      propertyPath: m_LocalPosition.z
      value: 0
      objectReference: {fileID: 0}
    - target: {fileID: 478072, guid: 6f27b28f9c63244ab85ad844b86ababf, type: 2}
      propertyPath: m_LocalRotation.x
      value: 0
      objectReference: {fileID: 0}
    - target: {fileID: 478072, guid: 6f27b28f9c63244ab85ad844b86ababf, type: 2}
      propertyPath: m_LocalRotation.y
      value: 0
      objectReference: {fileID: 0}
    - target: {fileID: 478072, guid: 6f27b28f9c63244ab85ad844b86ababf, type: 2}
      propertyPath: m_LocalRotation.z
      value: 0
      objectReference: {fileID: 0}
    - target: {fileID: 478072, guid: 6f27b28f9c63244ab85ad844b86ababf, type: 2}
      propertyPath: m_LocalRotation.w
      value: 1
      objectReference: {fileID: 0}
    - target: {fileID: 478072, guid: 6f27b28f9c63244ab85ad844b86ababf, type: 2}
      propertyPath: m_RootOrder
      value: 3
      objectReference: {fileID: 0}
    m_RemovedComponents: []
  m_ParentPrefab: {fileID: 100100000, guid: 6f27b28f9c63244ab85ad844b86ababf, type: 2}
  m_RootGameObject: {fileID: 436336209}
  m_IsPrefabParent: 0
--- !u!1 &436336209
GameObject:
  m_ObjectHideFlags: 0
  m_PrefabParentObject: {fileID: 122336, guid: 6f27b28f9c63244ab85ad844b86ababf, type: 2}
  m_PrefabInternal: {fileID: 272997015}
  serializedVersion: 4
  m_Component:
  - 4: {fileID: 436336212}
  - 114: {fileID: 436336211}
  - 114: {fileID: 436336210}
  m_Layer: 0
  m_Name: HandControllerCycler
  m_TagString: Untagged
  m_Icon: {fileID: 0}
  m_NavMeshLayer: 0
  m_StaticEditorFlags: 0
  m_IsActive: 1
--- !u!114 &436336210
MonoBehaviour:
  m_ObjectHideFlags: 0
  m_PrefabParentObject: {fileID: 11459976, guid: 6f27b28f9c63244ab85ad844b86ababf,
    type: 2}
  m_PrefabInternal: {fileID: 272997015}
  m_GameObject: {fileID: 436336209}
  m_Enabled: 1
  m_EditorHideFlags: 0
  m_Script: {fileID: 11500000, guid: 2aeed8ce4dd04446aa743d6468a99b65, type: 3}
  m_Name: 
  m_EditorClassIdentifier: 
  leftHands:
  - {fileID: 11400000, guid: 9ae8a8acf486840e19397b18a914d915, type: 2}
  - {fileID: 11400004, guid: 704f5d64b4ac849cbb1d88b6a50f0975, type: 2}
  - {fileID: 11400010, guid: 7d0286b4b0dbe40248b3fe201ba8adf5, type: 2}
  - {fileID: 11400000, guid: 368ede197811445f9b84f8ade38f75cd, type: 2}
  - {fileID: 11400000, guid: 561ca011b57384fa0a1b0575a2f12d2c, type: 2}
  - {fileID: 11400010, guid: 437fce09e95ef4a0b8ea465c2aca4aa7, type: 2}
  - {fileID: 11400010, guid: 5f4f1a5349b3243bfb0946ddda8768c3, type: 2}
  - {fileID: 11400010, guid: 7a730e7ba4b3a4eca8eac740d1fae5e4, type: 2}
  - {fileID: 11400000, guid: 828ed45ba0b8d4445b7f2d3bd8a2d692, type: 2}
  - {fileID: 11400010, guid: b05d31c870ee943a18bc114347790536, type: 2}
  - {fileID: 11400010, guid: 803e5afd6582b44ae90ede39c52c3554, type: 2}
  - {fileID: 11400010, guid: fe4de8a9a720449a0829dd9a0e49431f, type: 2}
  - {fileID: 11400010, guid: b4189dbf66def4c9799dad49101582e9, type: 2}
  - {fileID: 11400010, guid: e728ddf0a849b493d9153b051fad8004, type: 2}
  - {fileID: 11400002, guid: f838193a394db4bc9b92979104685e9b, type: 2}
  - {fileID: 11400008, guid: e52d7ac5daec443ebb309c944ad3c825, type: 2}
  - {fileID: 11400008, guid: 0ea7bf4e24d0846e2b245290bf408e4d, type: 2}
  - {fileID: 11400010, guid: 95a8b1228f1034c8f9070761f4f13b21, type: 2}
  rightHands:
  - {fileID: 11400010, guid: 0c6c9cacc3ef1487daa06cb206b2f421, type: 2}
  - {fileID: 11400010, guid: 7a511c744b475498891a2b1acc35e348, type: 2}
  - {fileID: 11400010, guid: 7d0286b4b0dbe40248b3fe201ba8adf5, type: 2}
  - {fileID: 11400000, guid: 368ede197811445f9b84f8ade38f75cd, type: 2}
  - {fileID: 11400000, guid: 561ca011b57384fa0a1b0575a2f12d2c, type: 2}
  - {fileID: 11400010, guid: f753ac161527744ce80c8603cac037a8, type: 2}
  - {fileID: 11400010, guid: 1359daef346c74018956e347e75a2ce8, type: 2}
  - {fileID: 11400010, guid: 85287e7dfb1e44f45979588a97a5755e, type: 2}
  - {fileID: 11400000, guid: 18e793e4eea4a427fb3b644c1a174f25, type: 2}
  - {fileID: 11400010, guid: 0c286504d675f4f388780324725d8274, type: 2}
  - {fileID: 11400010, guid: d0cfc6e3159544c63b90900f49044b35, type: 2}
  - {fileID: 11400010, guid: 59d37bd572fe54eb490dcbae28e3e382, type: 2}
  - {fileID: 11400010, guid: 84793ae866bd7489ebb054c1b4bcfb58, type: 2}
  - {fileID: 11400010, guid: 3651b102487274ab5aa9e19ae32656f4, type: 2}
  - {fileID: 11400004, guid: fa3f3c00a3a0b468eb15ed53304a2c4b, type: 2}
  - {fileID: 11400006, guid: c71966c97cd79448bb78426d92c4166a, type: 2}
  - {fileID: 11400006, guid: e6fc8e4707ca54d9cbd8573505edec5e, type: 2}
  - {fileID: 11400010, guid: 95a8b1228f1034c8f9070761f4f13b21, type: 2}
--- !u!114 &436336211
MonoBehaviour:
  m_ObjectHideFlags: 0
  m_PrefabParentObject: {fileID: 11422100, guid: 6f27b28f9c63244ab85ad844b86ababf,
    type: 2}
  m_PrefabInternal: {fileID: 272997015}
  m_GameObject: {fileID: 436336209}
  m_Enabled: 1
  m_EditorHideFlags: 0
  m_Script: {fileID: 11500000, guid: 2c4e0350c46ae405b8db39262c18b8f5, type: 3}
  m_Name: 
  m_EditorClassIdentifier: 
  separateLeftRight: 1
  leftGraphicsModel: {fileID: 0}
  leftPhysicsModel: {fileID: 11460542, guid: dc02f2d83c1ac4b4d9b4ec82df1b1732, type: 2}
  rightGraphicsModel: {fileID: 0}
  rightPhysicsModel: {fileID: 11460542, guid: dc02f2d83c1ac4b4d9b4ec82df1b1732, type: 2}
  useCameraControl: 0
  toolModel: {fileID: 0}
  isHeadMounted: 0
  mirrorZAxis: 0
  destroyHands: 1
  handMovementScale: {x: 1, y: 1, z: 1}
  enableRecordPlayback: 0
  recordingAsset: {fileID: 0}
  recorderSpeed: 1
  recorderLoop: 1
--- !u!4 &436336212
Transform:
  m_ObjectHideFlags: 0
  m_PrefabParentObject: {fileID: 478072, guid: 6f27b28f9c63244ab85ad844b86ababf, type: 2}
  m_PrefabInternal: {fileID: 272997015}
  m_GameObject: {fileID: 436336209}
  m_LocalRotation: {x: 0, y: 0, z: 0, w: 1}
  m_LocalPosition: {x: 0, y: 0, z: 0}
  m_LocalScale: {x: 15, y: 15, z: 15}
  m_Children: []
  m_Father: {fileID: 0}
  m_RootOrder: 3
--- !u!1001 &689360593
Prefab:
  m_ObjectHideFlags: 0
  serializedVersion: 2
  m_Modification:
    m_TransformParent: {fileID: 0}
    m_Modifications:
    - target: {fileID: 400000, guid: 5a6d55d79253c4a82a441dcac4585afb, type: 2}
      propertyPath: m_LocalPosition.x
      value: 0
      objectReference: {fileID: 0}
    - target: {fileID: 400000, guid: 5a6d55d79253c4a82a441dcac4585afb, type: 2}
      propertyPath: m_LocalPosition.y
      value: 0
      objectReference: {fileID: 0}
    - target: {fileID: 400000, guid: 5a6d55d79253c4a82a441dcac4585afb, type: 2}
      propertyPath: m_LocalPosition.z
      value: 1
      objectReference: {fileID: 0}
    - target: {fileID: 400000, guid: 5a6d55d79253c4a82a441dcac4585afb, type: 2}
      propertyPath: m_LocalRotation.x
      value: 0
      objectReference: {fileID: 0}
    - target: {fileID: 400000, guid: 5a6d55d79253c4a82a441dcac4585afb, type: 2}
      propertyPath: m_LocalRotation.y
      value: 0
      objectReference: {fileID: 0}
    - target: {fileID: 400000, guid: 5a6d55d79253c4a82a441dcac4585afb, type: 2}
      propertyPath: m_LocalRotation.z
      value: 0
      objectReference: {fileID: 0}
    - target: {fileID: 400000, guid: 5a6d55d79253c4a82a441dcac4585afb, type: 2}
      propertyPath: m_LocalRotation.w
      value: 1
      objectReference: {fileID: 0}
    - target: {fileID: 400000, guid: 5a6d55d79253c4a82a441dcac4585afb, type: 2}
      propertyPath: m_RootOrder
      value: 5
      objectReference: {fileID: 0}
    - target: {fileID: 100000, guid: 5a6d55d79253c4a82a441dcac4585afb, type: 2}
      propertyPath: m_IsActive
      value: 1
      objectReference: {fileID: 0}
    m_RemovedComponents: []
  m_ParentPrefab: {fileID: 100100000, guid: 5a6d55d79253c4a82a441dcac4585afb, type: 2}
  m_RootGameObject: {fileID: 1230512187}
  m_IsPrefabParent: 0
--- !u!1 &936307326
GameObject:
  m_ObjectHideFlags: 0
  m_PrefabParentObject: {fileID: 0}
  m_PrefabInternal: {fileID: 0}
  serializedVersion: 4
  m_Component:
  - 4: {fileID: 936307328}
  - 108: {fileID: 936307327}
  m_Layer: 0
  m_Name: Directional light
  m_TagString: Untagged
  m_Icon: {fileID: 0}
  m_NavMeshLayer: 0
  m_StaticEditorFlags: 0
  m_IsActive: 1
--- !u!108 &936307327
Light:
  m_ObjectHideFlags: 0
  m_PrefabParentObject: {fileID: 0}
  m_PrefabInternal: {fileID: 0}
  m_GameObject: {fileID: 936307326}
  m_Enabled: 1
  serializedVersion: 6
  m_Type: 1
  m_Color: {r: 1, g: 1, b: 1, a: 1}
  m_Intensity: .280000001
  m_Range: 10
  m_SpotAngle: 30
  m_CookieSize: 10
  m_Shadows:
    m_Type: 0
    m_Resolution: -1
    m_Strength: .442999989
    m_Bias: .0500000007
    m_NormalBias: .400000006
  m_Cookie: {fileID: 0}
  m_DrawHalo: 0
  m_Flare: {fileID: 0}
  m_RenderMode: 0
  m_CullingMask:
    serializedVersion: 2
    m_Bits: 4294967295
  m_Lightmapping: 1
  m_BounceIntensity: 1
  m_ShadowRadius: 0
  m_ShadowAngle: 0
  m_AreaSize: {x: 1, y: 1}
--- !u!4 &936307328
Transform:
  m_ObjectHideFlags: 0
  m_PrefabParentObject: {fileID: 0}
  m_PrefabInternal: {fileID: 0}
  m_GameObject: {fileID: 936307326}
  m_LocalRotation: {x: .861032367, y: .206064135, z: .0259479731, w: .464206338}
  m_LocalPosition: {x: 1.79072332, y: 3.98761344, z: -.843651533}
  m_LocalScale: {x: 1.00000012, y: 1, z: 1}
  m_Children: []
  m_Father: {fileID: 0}
  m_RootOrder: 1
--- !u!1 &1230512187
GameObject:
  m_ObjectHideFlags: 0
  m_PrefabParentObject: {fileID: 100000, guid: 5a6d55d79253c4a82a441dcac4585afb, type: 2}
  m_PrefabInternal: {fileID: 689360593}
  serializedVersion: 4
  m_Component:
  - 4: {fileID: 1230512191}
  - 131: {fileID: 1230512190}
  - 114: {fileID: 1230512189}
  - 114: {fileID: 1230512188}
  m_Layer: 0
  m_Name: PluginLeapNotice
  m_TagString: Untagged
  m_Icon: {fileID: 0}
  m_NavMeshLayer: 0
  m_StaticEditorFlags: 0
  m_IsActive: 1
--- !u!114 &1230512188
MonoBehaviour:
  m_ObjectHideFlags: 0
  m_PrefabParentObject: {fileID: 11400000, guid: 5a6d55d79253c4a82a441dcac4585afb,
    type: 2}
  m_PrefabInternal: {fileID: 689360593}
  m_GameObject: {fileID: 1230512187}
  m_Enabled: 1
  m_EditorHideFlags: 0
  m_Script: {fileID: 11500000, guid: ab4928fae41e1411bb2384ddd4d23c0a, type: 3}
  m_Name: 
  m_EditorClassIdentifier: 
--- !u!114 &1230512189
MonoBehaviour:
  m_ObjectHideFlags: 0
  m_PrefabParentObject: {fileID: 11400002, guid: 5a6d55d79253c4a82a441dcac4585afb,
    type: 2}
  m_PrefabInternal: {fileID: 689360593}
  m_GameObject: {fileID: 1230512187}
  m_Enabled: 1
  m_EditorHideFlags: 0
  m_Script: {fileID: 11500000, guid: 228d149b4df3342518ccdb1142cee81b, type: 3}
  m_Name: 
  m_EditorClassIdentifier: 
  fadeInTime: 1
  fadeOutTime: 1
  fade:
    serializedVersion: 2
    m_Curve:
    - time: 0
      value: 0
      inSlope: 0
      outSlope: 0
      tangentMode: 0
    - time: 1
      value: 1
      inSlope: 2
      outSlope: 2
      tangentMode: 0
    m_PreInfinity: 2
    m_PostInfinity: 2
  waitFrames: 10
  embeddedReplacementImage: {fileID: 2800000, guid: ebc61a8ce70eb495494d1209ae9dbf43,
    type: 3}
  onColor: {r: .544117689, g: .544117689, b: .544117689, a: 1}
--- !u!131 &1230512190
GUITexture:
  m_ObjectHideFlags: 0
  m_PrefabParentObject: {fileID: 13100000, guid: 5a6d55d79253c4a82a441dcac4585afb,
    type: 2}
  m_PrefabInternal: {fileID: 689360593}
  m_GameObject: {fileID: 1230512187}
  m_Enabled: 1
  m_Texture: {fileID: 2800000, guid: d9f2440b0c0a7447b8409e9ff6041121, type: 3}
  m_Color: {r: 0, g: 0, b: 0, a: 0}
  m_PixelInset:
    serializedVersion: 2
    x: -64
    y: -29
    width: 128
    height: 58
  m_LeftBorder: 0
  m_RightBorder: 0
  m_TopBorder: 0
  m_BottomBorder: 0
--- !u!4 &1230512191
Transform:
  m_ObjectHideFlags: 0
  m_PrefabParentObject: {fileID: 400000, guid: 5a6d55d79253c4a82a441dcac4585afb, type: 2}
  m_PrefabInternal: {fileID: 689360593}
  m_GameObject: {fileID: 1230512187}
  m_LocalRotation: {x: 0, y: 0, z: 0, w: 1}
  m_LocalPosition: {x: 0, y: 0, z: 1}
  m_LocalScale: {x: 0, y: 0, z: 1}
  m_Children: []
  m_Father: {fileID: 0}
  m_RootOrder: 5
--- !u!1 &1352011081
GameObject:
  m_ObjectHideFlags: 0
  m_PrefabParentObject: {fileID: 0}
  m_PrefabInternal: {fileID: 0}
  serializedVersion: 4
  m_Component:
  - 4: {fileID: 1352011085}
  - 33: {fileID: 1352011084}
  - 23: {fileID: 1352011082}
  m_Layer: 0
  m_Name: Plane
  m_TagString: Untagged
  m_Icon: {fileID: 0}
  m_NavMeshLayer: 0
  m_StaticEditorFlags: 0
  m_IsActive: 1
--- !u!23 &1352011082
MeshRenderer:
  m_ObjectHideFlags: 0
  m_PrefabParentObject: {fileID: 0}
  m_PrefabInternal: {fileID: 0}
  m_GameObject: {fileID: 1352011081}
  m_Enabled: 1
  m_CastShadows: 1
  m_ReceiveShadows: 1
  m_Materials:
  - {fileID: 2100000, guid: f83509b582cf64c1aa61ed32d1cfa883, type: 2}
  m_SubsetIndices: 
  m_StaticBatchRoot: {fileID: 0}
  m_UseLightProbes: 0
  m_ReflectionProbeUsage: 1
  m_ProbeAnchor: {fileID: 0}
  m_ScaleInLightmap: 1
  m_PreserveUVs: 0
  m_IgnoreNormalsForChartDetection: 0
  m_ImportantGI: 0
  m_MinimumChartSize: 4
  m_AutoUVMaxDistance: .5
  m_AutoUVMaxAngle: 89
  m_LightmapParameters: {fileID: 0}
  m_SortingLayerID: 0
  m_SortingOrder: 0
--- !u!33 &1352011084
MeshFilter:
  m_ObjectHideFlags: 0
  m_PrefabParentObject: {fileID: 0}
  m_PrefabInternal: {fileID: 0}
  m_GameObject: {fileID: 1352011081}
  m_Mesh: {fileID: 10209, guid: 0000000000000000e000000000000000, type: 0}
--- !u!4 &1352011085
Transform:
  m_ObjectHideFlags: 0
  m_PrefabParentObject: {fileID: 0}
  m_PrefabInternal: {fileID: 0}
  m_GameObject: {fileID: 1352011081}
  m_LocalRotation: {x: 0, y: 0, z: 0, w: 1}
  m_LocalPosition: {x: 0, y: 0, z: 0}
  m_LocalScale: {x: 100, y: 100, z: 100}
  m_Children: []
  m_Father: {fileID: 0}
  m_RootOrder: 4
--- !u!1 &1580620743
GameObject:
  m_ObjectHideFlags: 0
  m_PrefabParentObject: {fileID: 100000, guid: 4ac4fc9fd56ed45679fb6ba70873e267, type: 2}
  m_PrefabInternal: {fileID: 0}
  serializedVersion: 4
  m_Component:
  - 4: {fileID: 1580620745}
  - 132: {fileID: 1580620744}
  m_Layer: 0
  m_Name: Instructional Text
  m_TagString: Untagged
  m_Icon: {fileID: 0}
  m_NavMeshLayer: 0
  m_StaticEditorFlags: 0
  m_IsActive: 1
--- !u!132 &1580620744
GUIText:
  m_ObjectHideFlags: 0
  m_PrefabParentObject: {fileID: 13200000, guid: 4ac4fc9fd56ed45679fb6ba70873e267,
    type: 2}
  m_PrefabInternal: {fileID: 0}
  m_GameObject: {fileID: 1580620743}
  m_Enabled: 1
  serializedVersion: 3
  m_Text: Press the left or right arrow to browse hand models
  m_Anchor: 7
  m_Alignment: 0
  m_PixelOffset: {x: 0, y: 28.1000004}
  m_LineSpacing: 1
  m_TabSize: 4
  m_Font: {fileID: 10102, guid: 0000000000000000e000000000000000, type: 0}
  m_Material: {fileID: 0}
  m_FontSize: 28
  m_FontStyle: 0
  m_Color:
    serializedVersion: 2
    rgba: 4287203721
  m_PixelCorrect: 1
  m_RichText: 1
--- !u!4 &1580620745
Transform:
  m_ObjectHideFlags: 0
  m_PrefabParentObject: {fileID: 400000, guid: 4ac4fc9fd56ed45679fb6ba70873e267, type: 2}
  m_PrefabInternal: {fileID: 0}
  m_GameObject: {fileID: 1580620743}
  m_LocalRotation: {x: 0, y: 0, z: 0, w: 1}
  m_LocalPosition: {x: .5, y: 0, z: 0}
  m_LocalScale: {x: 1, y: 1, z: 1}
  m_Children: []
  m_Father: {fileID: 0}
  m_RootOrder: 6
--- !u!1 &2053645173
GameObject:
  m_ObjectHideFlags: 0
  m_PrefabParentObject: {fileID: 0}
  m_PrefabInternal: {fileID: 0}
  serializedVersion: 4
  m_Component:
  - 4: {fileID: 2053645178}
  - 20: {fileID: 2053645177}
  - 92: {fileID: 2053645176}
  - 124: {fileID: 2053645175}
  - 81: {fileID: 2053645174}
  m_Layer: 0
  m_Name: Main Camera
  m_TagString: MainCamera
  m_Icon: {fileID: 0}
  m_NavMeshLayer: 0
  m_StaticEditorFlags: 0
  m_IsActive: 1
--- !u!81 &2053645174
AudioListener:
  m_ObjectHideFlags: 0
  m_PrefabParentObject: {fileID: 0}
  m_PrefabInternal: {fileID: 0}
  m_GameObject: {fileID: 2053645173}
  m_Enabled: 1
--- !u!124 &2053645175
Behaviour:
  m_ObjectHideFlags: 0
  m_PrefabParentObject: {fileID: 0}
  m_PrefabInternal: {fileID: 0}
  m_GameObject: {fileID: 2053645173}
  m_Enabled: 1
--- !u!92 &2053645176
Behaviour:
  m_ObjectHideFlags: 0
  m_PrefabParentObject: {fileID: 0}
  m_PrefabInternal: {fileID: 0}
  m_GameObject: {fileID: 2053645173}
  m_Enabled: 1
--- !u!20 &2053645177
Camera:
  m_ObjectHideFlags: 0
  m_PrefabParentObject: {fileID: 0}
  m_PrefabInternal: {fileID: 0}
  m_GameObject: {fileID: 2053645173}
  m_Enabled: 1
  serializedVersion: 2
  m_ClearFlags: 1
  m_BackGroundColor: {r: .321568638, g: .274509817, b: .254901975, a: .0196078438}
  m_NormalizedViewPortRect:
    serializedVersion: 2
    x: 0
    y: 0
    width: 1
    height: 1
  near clip plane: .300000012
  far clip plane: 1000
  field of view: 60
  orthographic: 0
  orthographic size: 5
  m_Depth: -1
  m_CullingMask:
    serializedVersion: 2
    m_Bits: 4294967295
  m_RenderingPath: -1
  m_TargetTexture: {fileID: 0}
  m_TargetDisplay: 0
  m_TargetEye: 3
  m_HDR: 0
  m_OcclusionCulling: 1
  m_StereoConvergence: 10
  m_StereoSeparation: .0219999999
  m_StereoMirrorMode: 0
--- !u!4 &2053645178
Transform:
  m_ObjectHideFlags: 0
  m_PrefabParentObject: {fileID: 0}
  m_PrefabInternal: {fileID: 0}
  m_GameObject: {fileID: 2053645173}
  m_LocalRotation: {x: .239348039, y: 0, z: 0, w: .970933855}
  m_LocalPosition: {x: 0, y: 6, z: -5}
  m_LocalScale: {x: 1, y: 1, z: 1}
  m_Children: []
  m_Father: {fileID: 0}
  m_RootOrder: 2
