%YAML 1.1
%TAG !u! tag:unity3d.com,2011:
--- !u!29 &1
SceneSettings:
  m_ObjectHideFlags: 0
  m_PVSData: 
  m_PVSObjectsArray: []
  m_PVSPortalsArray: []
  m_OcclusionBakeSettings:
    smallestOccluder: 5
    smallestHole: .25
    backfaceThreshold: 100
--- !u!104 &2
RenderSettings:
  m_ObjectHideFlags: 0
  serializedVersion: 6
  m_Fog: 0
  m_FogColor: {r: .5, g: .5, b: .5, a: 1}
  m_FogMode: 3
  m_FogDensity: .00999999978
  m_LinearFogStart: 0
  m_LinearFogEnd: 300
  m_AmbientSkyColor: {r: .200000003, g: .200000003, b: .200000003, a: 1}
  m_AmbientEquatorColor: {r: .200000003, g: .200000003, b: .200000003, a: 1}
  m_AmbientGroundColor: {r: .200000003, g: .200000003, b: .200000003, a: 1}
  m_AmbientIntensity: 1
  m_AmbientMode: 3
  m_SkyboxMaterial: {fileID: 0}
  m_HaloStrength: .5
  m_FlareStrength: 1
  m_FlareFadeSpeed: 3
  m_HaloTexture: {fileID: 0}
  m_SpotCookie: {fileID: 10001, guid: 0000000000000000e000000000000000, type: 0}
  m_DefaultReflectionMode: 0
  m_DefaultReflectionResolution: 128
  m_ReflectionBounces: 1
  m_ReflectionIntensity: 1
  m_CustomReflection: {fileID: 0}
  m_Sun: {fileID: 0}
--- !u!157 &4
LightmapSettings:
  m_ObjectHideFlags: 0
  serializedVersion: 5
  m_GIWorkflowMode: 1
  m_LightmapsMode: 1
  m_GISettings:
    serializedVersion: 2
    m_BounceScale: 1
    m_IndirectOutputScale: 1
    m_AlbedoBoost: 1
    m_TemporalCoherenceThreshold: 1
    m_EnvironmentLightingMode: 0
    m_EnableBakedLightmaps: 1
    m_EnableRealtimeLightmaps: 0
  m_LightmapEditorSettings:
    serializedVersion: 3
    m_Resolution: 1
    m_BakeResolution: 50
    m_TextureWidth: 1024
    m_TextureHeight: 1024
    m_AOMaxDistance: 1
    m_Padding: 2
    m_CompAOExponent: 0
    m_LightmapParameters: {fileID: 0}
    m_TextureCompression: 0
    m_FinalGather: 0
    m_FinalGatherRayCount: 1024
    m_ReflectionCompression: 2
  m_LightmapSnapshot: {fileID: 0}
  m_RuntimeCPUUsage: 25
--- !u!196 &5
NavMeshSettings:
  serializedVersion: 2
  m_ObjectHideFlags: 0
  m_BuildSettings:
    serializedVersion: 2
    agentRadius: .5
    agentHeight: 2
    agentSlope: 45
    agentClimb: .400000006
    ledgeDropHeight: 0
    maxJumpAcrossDistance: 0
    accuratePlacement: 0
    minRegionArea: 2
    cellSize: .166666657
    manualCellSize: 0
  m_NavMeshData: {fileID: 0}
--- !u!1 &319724981
GameObject:
  m_ObjectHideFlags: 0
  m_PrefabParentObject: {fileID: 100320, guid: bf535373e4ec64618963950551127fa5, type: 2}
  m_PrefabInternal: {fileID: 613071801}
  serializedVersion: 4
  m_Component:
  - 4: {fileID: 319724982}
  - 20: {fileID: 319724985}
  - 114: {fileID: 319724984}
  - 114: {fileID: 319724983}
  m_Layer: 0
  m_Name: LeftEyeAnchor
  m_TagString: Untagged
  m_Icon: {fileID: 0}
  m_NavMeshLayer: 0
  m_StaticEditorFlags: 0
  m_IsActive: 1
--- !u!4 &319724982
Transform:
  m_ObjectHideFlags: 0
  m_PrefabParentObject: {fileID: 444698, guid: bf535373e4ec64618963950551127fa5, type: 2}
  m_PrefabInternal: {fileID: 613071801}
  m_GameObject: {fileID: 319724981}
  m_LocalRotation: {x: 0, y: 0, z: 0, w: 1}
  m_LocalPosition: {x: -.0199999996, y: 0, z: 0}
  m_LocalScale: {x: 1, y: 1, z: 1}
  m_Children: []
  m_Father: {fileID: 1471963097}
  m_RootOrder: 0
--- !u!114 &319724983
MonoBehaviour:
  m_ObjectHideFlags: 0
  m_PrefabParentObject: {fileID: 11453460, guid: bf535373e4ec64618963950551127fa5,
    type: 2}
  m_PrefabInternal: {fileID: 613071801}
  m_GameObject: {fileID: 319724981}
  m_Enabled: 1
  m_EditorHideFlags: 0
  m_Script: {fileID: 11500000, guid: 4499ae867a57a90449cb9069c466ade0, type: 3}
  m_Name: 
  m_EditorClassIdentifier: 
--- !u!114 &319724984
MonoBehaviour:
  m_ObjectHideFlags: 0
  m_PrefabParentObject: {fileID: 11467950, guid: bf535373e4ec64618963950551127fa5,
    type: 2}
  m_PrefabInternal: {fileID: 613071801}
  m_GameObject: {fileID: 319724981}
  m_Enabled: 1
  m_EditorHideFlags: 0
  m_Script: {fileID: 11500000, guid: fd815635398474cbbba564563a209f82, type: 3}
  m_Name: 
  m_EditorClassIdentifier: 
  retrievedEye: 0
  syncMode: 0
  gammaCorrection: 1
  handController: {fileID: 607546787}
--- !u!20 &319724985
Camera:
  m_ObjectHideFlags: 0
  m_PrefabParentObject: {fileID: 2036646, guid: bf535373e4ec64618963950551127fa5,
    type: 2}
  m_PrefabInternal: {fileID: 613071801}
  m_GameObject: {fileID: 319724981}
  m_Enabled: 1
  serializedVersion: 2
  m_ClearFlags: 1
  m_BackGroundColor: {r: .192156866, g: .301960796, b: .474509805, a: .0196078438}
  m_NormalizedViewPortRect:
    serializedVersion: 2
    x: 0
    y: 0
    width: 1
    height: 1
  near clip plane: .00999999978
  far clip plane: 1000
  field of view: 60
  orthographic: 0
  orthographic size: 5
  m_Depth: 0
  m_CullingMask:
    serializedVersion: 2
    m_Bits: 4294967295
  m_RenderingPath: -1
  m_TargetTexture: {fileID: 0}
  m_TargetDisplay: 0
  m_TargetEye: 3
  m_HDR: 0
  m_OcclusionCulling: 1
  m_StereoConvergence: 10
  m_StereoSeparation: .0219999999
  m_StereoMirrorMode: 0
--- !u!114 &607546787
MonoBehaviour:
  m_ObjectHideFlags: 0
  m_PrefabParentObject: {fileID: 11434144, guid: bf535373e4ec64618963950551127fa5,
    type: 2}
  m_PrefabInternal: {fileID: 613071801}
  m_GameObject: {fileID: 1589170157}
  m_Enabled: 1
  m_EditorHideFlags: 0
  m_Script: {fileID: 11500000, guid: 2c4e0350c46ae405b8db39262c18b8f5, type: 3}
  m_Name: 
  m_EditorClassIdentifier: 
  separateLeftRight: 1
  leftGraphicsModel: {fileID: 11400008, guid: e9fcde724db27af479a62244440b8b18, type: 2}
  leftPhysicsModel: {fileID: 11460542, guid: dc02f2d83c1ac4b4d9b4ec82df1b1732, type: 2}
  rightGraphicsModel: {fileID: 11400006, guid: 38c9cece84724db4c9a5bfcbdf2e2115, type: 2}
  rightPhysicsModel: {fileID: 11460542, guid: dc02f2d83c1ac4b4d9b4ec82df1b1732, type: 2}
  useCameraControl: 0
  toolModel: {fileID: 0}
  isHeadMounted: 1
  mirrorZAxis: 0
  destroyHands: 1
  handMovementScale: {x: 1, y: 1, z: 1}
  enableRecordPlayback: 0
  recordingAsset: {fileID: 0}
  recorderSpeed: 1
  recorderLoop: 1
--- !u!1001 &613071801
Prefab:
  m_ObjectHideFlags: 0
  serializedVersion: 2
  m_Modification:
    m_TransformParent: {fileID: 0}
    m_Modifications:
    - target: {fileID: 455204, guid: bf535373e4ec64618963950551127fa5, type: 2}
      propertyPath: m_LocalPosition.x
      value: 0
      objectReference: {fileID: 0}
    - target: {fileID: 455204, guid: bf535373e4ec64618963950551127fa5, type: 2}
      propertyPath: m_LocalPosition.y
      value: 0
      objectReference: {fileID: 0}
    - target: {fileID: 455204, guid: bf535373e4ec64618963950551127fa5, type: 2}
      propertyPath: m_LocalPosition.z
      value: 0
      objectReference: {fileID: 0}
    - target: {fileID: 455204, guid: bf535373e4ec64618963950551127fa5, type: 2}
      propertyPath: m_LocalRotation.x
      value: 0
      objectReference: {fileID: 0}
    - target: {fileID: 455204, guid: bf535373e4ec64618963950551127fa5, type: 2}
      propertyPath: m_LocalRotation.y
      value: 0
      objectReference: {fileID: 0}
    - target: {fileID: 455204, guid: bf535373e4ec64618963950551127fa5, type: 2}
      propertyPath: m_LocalRotation.z
      value: 0
      objectReference: {fileID: 0}
    - target: {fileID: 455204, guid: bf535373e4ec64618963950551127fa5, type: 2}
      propertyPath: m_LocalRotation.w
      value: 1
      objectReference: {fileID: 0}
    - target: {fileID: 455204, guid: bf535373e4ec64618963950551127fa5, type: 2}
      propertyPath: m_RootOrder
      value: 0
      objectReference: {fileID: 0}
    - target: {fileID: 11467950, guid: bf535373e4ec64618963950551127fa5, type: 2}
      propertyPath: retrievedEye
      value: 0
      objectReference: {fileID: 0}
    - target: {fileID: 11467950, guid: bf535373e4ec64618963950551127fa5, type: 2}
      propertyPath: handController
      value: 
      objectReference: {fileID: 607546787}
    m_RemovedComponents: []
  m_ParentPrefab: {fileID: 100100000, guid: bf535373e4ec64618963950551127fa5, type: 2}
  m_RootGameObject: {fileID: 1471963096}
  m_IsPrefabParent: 0
--- !u!1 &821509973
GameObject:
  m_ObjectHideFlags: 0
  m_PrefabParentObject: {fileID: 190196, guid: bf535373e4ec64618963950551127fa5, type: 2}
  m_PrefabInternal: {fileID: 613071801}
  serializedVersion: 4
  m_Component:
  - 4: {fileID: 821509974}
  m_Layer: 0
  m_Name: CenterEyeAnchor
  m_TagString: Untagged
  m_Icon: {fileID: 0}
  m_NavMeshLayer: 0
  m_StaticEditorFlags: 0
  m_IsActive: 1
--- !u!4 &821509974
Transform:
  m_ObjectHideFlags: 0
  m_PrefabParentObject: {fileID: 465928, guid: bf535373e4ec64618963950551127fa5, type: 2}
  m_PrefabInternal: {fileID: 613071801}
  m_GameObject: {fileID: 821509973}
  m_LocalRotation: {x: 0, y: 0, z: 0, w: 1}
  m_LocalPosition: {x: 0, y: 0, z: 0}
  m_LocalScale: {x: 1, y: 1, z: 1}
  m_Children:
  - {fileID: 1589170158}
  - {fileID: 878189298}
  m_Father: {fileID: 1471963097}
  m_RootOrder: 1
--- !u!1 &878189297
GameObject:
  m_ObjectHideFlags: 0
  m_PrefabParentObject: {fileID: 140976, guid: bf535373e4ec64618963950551127fa5, type: 2}
  m_PrefabInternal: {fileID: 613071801}
  serializedVersion: 4
  m_Component:
  - 4: {fileID: 878189298}
  - 33: {fileID: 878189301}
  - 23: {fileID: 878189300}
  - 114: {fileID: 878189299}
  m_Layer: 0
  m_Name: Quad
  m_TagString: Untagged
  m_Icon: {fileID: 0}
  m_NavMeshLayer: 0
  m_StaticEditorFlags: 0
  m_IsActive: 1
--- !u!4 &878189298
Transform:
  m_ObjectHideFlags: 0
  m_PrefabParentObject: {fileID: 412730, guid: bf535373e4ec64618963950551127fa5, type: 2}
  m_PrefabInternal: {fileID: 613071801}
  m_GameObject: {fileID: 878189297}
  m_LocalRotation: {x: 0, y: 0, z: 0, w: 1}
  m_LocalPosition: {x: 0, y: 0, z: .136999995}
  m_LocalScale: {x: 1, y: 1, z: 1}
  m_Children: []
  m_Father: {fileID: 821509974}
  m_RootOrder: 1
--- !u!114 &878189299
MonoBehaviour:
  m_ObjectHideFlags: 0
  m_PrefabParentObject: {fileID: 11447352, guid: bf535373e4ec64618963950551127fa5,
    type: 2}
  m_PrefabInternal: {fileID: 613071801}
  m_GameObject: {fileID: 878189297}
  m_Enabled: 1
  m_EditorHideFlags: 0
  m_Script: {fileID: 11500000, guid: 86aee74930bad8446a5eacc8f034bfac, type: 3}
  m_Name: 
  m_EditorClassIdentifier: 
  imageMode: 1
--- !u!23 &878189300
MeshRenderer:
  m_ObjectHideFlags: 0
  m_PrefabParentObject: {fileID: 2301878, guid: bf535373e4ec64618963950551127fa5,
    type: 2}
  m_PrefabInternal: {fileID: 613071801}
  m_GameObject: {fileID: 878189297}
  m_Enabled: 1
  m_CastShadows: 0
  m_ReceiveShadows: 0
  m_Materials:
  - {fileID: 2100000, guid: a781c82cecc141143bb13e71d88efa99, type: 2}
  m_SubsetIndices: 
  m_StaticBatchRoot: {fileID: 0}
  m_UseLightProbes: 0
  m_ReflectionProbeUsage: 1
  m_ProbeAnchor: {fileID: 0}
  m_ScaleInLightmap: 1
  m_PreserveUVs: 0
  m_IgnoreNormalsForChartDetection: 0
  m_ImportantGI: 0
  m_MinimumChartSize: 4
  m_AutoUVMaxDistance: .5
  m_AutoUVMaxAngle: 89
  m_LightmapParameters: {fileID: 0}
  m_SortingLayerID: 0
  m_SortingOrder: 0
--- !u!33 &878189301
MeshFilter:
  m_ObjectHideFlags: 0
  m_PrefabParentObject: {fileID: 3323112, guid: bf535373e4ec64618963950551127fa5,
    type: 2}
  m_PrefabInternal: {fileID: 613071801}
  m_GameObject: {fileID: 878189297}
  m_Mesh: {fileID: 10210, guid: 0000000000000000e000000000000000, type: 0}
--- !u!1 &1471963096
GameObject:
  m_ObjectHideFlags: 0
  m_PrefabParentObject: {fileID: 178980, guid: bf535373e4ec64618963950551127fa5, type: 2}
  m_PrefabInternal: {fileID: 613071801}
  serializedVersion: 4
  m_Component:
  - 4: {fileID: 1471963097}
  m_Layer: 0
  m_Name: LeapMonoCameraRig
  m_TagString: Untagged
  m_Icon: {fileID: 0}
  m_NavMeshLayer: 0
  m_StaticEditorFlags: 0
  m_IsActive: 1
--- !u!4 &1471963097
Transform:
  m_ObjectHideFlags: 0
  m_PrefabParentObject: {fileID: 455204, guid: bf535373e4ec64618963950551127fa5, type: 2}
  m_PrefabInternal: {fileID: 613071801}
  m_GameObject: {fileID: 1471963096}
  m_LocalRotation: {x: 0, y: 0, z: 0, w: 1}
  m_LocalPosition: {x: 0, y: 0, z: 0}
  m_LocalScale: {x: 1, y: 1, z: 1}
  m_Children:
  - {fileID: 319724982}
  - {fileID: 821509974}
  m_Father: {fileID: 0}
  m_RootOrder: 0
--- !u!1 &1589170157
GameObject:
  m_ObjectHideFlags: 0
  m_PrefabParentObject: {fileID: 131322, guid: bf535373e4ec64618963950551127fa5, type: 2}
  m_PrefabInternal: {fileID: 613071801}
  serializedVersion: 4
  m_Component:
  - 4: {fileID: 1589170158}
  - 114: {fileID: 607546787}
  m_Layer: 0
  m_Name: HeadMountedHandController
  m_TagString: Untagged
  m_Icon: {fileID: 0}
  m_NavMeshLayer: 0
  m_StaticEditorFlags: 0
  m_IsActive: 1
--- !u!4 &1589170158
Transform:
  m_ObjectHideFlags: 0
  m_PrefabParentObject: {fileID: 460912, guid: bf535373e4ec64618963950551127fa5, type: 2}
  m_PrefabInternal: {fileID: 613071801}
  m_GameObject: {fileID: 1589170157}
  m_LocalRotation: {x: -3.09086232e-08, y: -.707106829, z: -.707106829, w: 3.09086232e-08}
  m_LocalPosition: {x: 0, y: 0, z: 0}
  m_LocalScale: {x: 1, y: 1, z: 1}
  m_Children: []
  m_Father: {fileID: 821509974}
  m_RootOrder: 0
