%YAML 1.1
%TAG !u! tag:unity3d.com,2011:
--- !u!29 &1
SceneSettings:
  m_ObjectHideFlags: 0
  m_PVSData: 
  m_PVSObjectsArray: []
  m_PVSPortalsArray: []
  m_OcclusionBakeSettings:
    smallestOccluder: 5
    smallestHole: .25
    backfaceThreshold: 100
--- !u!104 &2
RenderSettings:
  m_ObjectHideFlags: 0
  serializedVersion: 6
  m_Fog: 0
  m_FogColor: {r: .5, g: .5, b: .5, a: 1}
  m_FogMode: 3
  m_FogDensity: .00999999978
  m_LinearFogStart: 0
  m_LinearFogEnd: 300
  m_AmbientSkyColor: {r: .200000003, g: .200000003, b: .200000003, a: 1}
  m_AmbientEquatorColor: {r: .200000003, g: .200000003, b: .200000003, a: 1}
  m_AmbientGroundColor: {r: .200000003, g: .200000003, b: .200000003, a: 1}
  m_AmbientIntensity: 1
  m_AmbientMode: 3
  m_SkyboxMaterial: {fileID: 0}
  m_HaloStrength: .5
  m_FlareStrength: 1
  m_FlareFadeSpeed: 3
  m_HaloTexture: {fileID: 0}
  m_SpotCookie: {fileID: 10001, guid: 0000000000000000e000000000000000, type: 0}
  m_DefaultReflectionMode: 0
  m_DefaultReflectionResolution: 128
  m_ReflectionBounces: 1
  m_ReflectionIntensity: 1
  m_CustomReflection: {fileID: 0}
  m_Sun: {fileID: 0}
--- !u!157 &4
LightmapSettings:
  m_ObjectHideFlags: 0
  serializedVersion: 5
  m_GIWorkflowMode: 1
  m_LightmapsMode: 1
  m_GISettings:
    serializedVersion: 2
    m_BounceScale: 1
    m_IndirectOutputScale: 1
    m_AlbedoBoost: 1
    m_TemporalCoherenceThreshold: 1
    m_EnvironmentLightingMode: 0
    m_EnableBakedLightmaps: 1
    m_EnableRealtimeLightmaps: 0
  m_LightmapEditorSettings:
    serializedVersion: 3
    m_Resolution: 1
    m_BakeResolution: 50
    m_TextureWidth: 1024
    m_TextureHeight: 1024
    m_AOMaxDistance: 1
    m_Padding: 2
    m_CompAOExponent: 0
    m_LightmapParameters: {fileID: 0}
    m_TextureCompression: 0
    m_FinalGather: 0
    m_FinalGatherRayCount: 1024
    m_ReflectionCompression: 2
  m_LightmapSnapshot: {fileID: 0}
  m_RuntimeCPUUsage: 25
--- !u!196 &5
NavMeshSettings:
  serializedVersion: 2
  m_ObjectHideFlags: 0
  m_BuildSettings:
    serializedVersion: 2
    agentRadius: .5
    agentHeight: 2
    agentSlope: 45
    agentClimb: .400000006
    ledgeDropHeight: 0
    maxJumpAcrossDistance: 0
    accuratePlacement: 0
    minRegionArea: 2
    cellSize: .166666657
    manualCellSize: 0
  m_NavMeshData: {fileID: 0}
--- !u!1 &90985582
GameObject:
  m_ObjectHideFlags: 0
  m_PrefabParentObject: {fileID: 198802, guid: 27f15dd5e6233af4b96aa57291abba30, type: 2}
  m_PrefabInternal: {fileID: 1593226543}
  serializedVersion: 4
  m_Component:
  - 4: {fileID: 90985583}
  - 114: {fileID: 90985584}
  m_Layer: 0
  m_Name: TrackingSpace
  m_TagString: Untagged
  m_Icon: {fileID: 0}
  m_NavMeshLayer: 0
  m_StaticEditorFlags: 0
  m_IsActive: 1
--- !u!4 &90985583
Transform:
  m_ObjectHideFlags: 0
  m_PrefabParentObject: {fileID: 463878, guid: 27f15dd5e6233af4b96aa57291abba30, type: 2}
  m_PrefabInternal: {fileID: 1593226543}
  m_GameObject: {fileID: 90985582}
  m_LocalRotation: {x: 0, y: 0, z: 0, w: 1}
  m_LocalPosition: {x: 0, y: 0, z: 0}
  m_LocalScale: {x: 1, y: 1, z: 1}
  m_Children:
  - {fileID: 987375333}
  - {fileID: 231074813}
  - {fileID: 1584201774}
  m_Father: {fileID: 1593226546}
  m_RootOrder: 0
--- !u!114 &90985584
MonoBehaviour:
  m_ObjectHideFlags: 0
  m_PrefabParentObject: {fileID: 11464928, guid: 27f15dd5e6233af4b96aa57291abba30,
    type: 2}
  m_PrefabInternal: {fileID: 1593226543}
  m_GameObject: {fileID: 90985582}
  m_Enabled: 1
  m_EditorHideFlags: 0
  m_Script: {fileID: 11500000, guid: e21f7214440054f59a5d2da168b3e2dd, type: 3}
  m_Name: 
  m_EditorClassIdentifier: 
  recenter: 114
  leftCamera: {fileID: 987375333}
  rightCamera: {fileID: 1584201774}
  centerCamera: {fileID: 231074813}
  counterAligned:
  - {fileID: 1741638430}
  tweenRewind: 0
  tweenTimeWarp: 1
  tweenPosition: 1
  tweenForward: 1
  _allowManualTimeAlignment: 0
  unlockHold: 303
  moreRewind: 275
  lessRewind: 276
  latencySmoothing: 1
  overrideDeviceType: 0
  overrideDeviceTypeWith: 0
--- !u!1 &167906694
GameObject:
  m_ObjectHideFlags: 0
  m_PrefabParentObject: {fileID: 0}
  m_PrefabInternal: {fileID: 0}
  serializedVersion: 4
  m_Component:
  - 4: {fileID: 167906695}
  - 114: {fileID: 167906696}
  m_Layer: 0
  m_Name: MovementManager
  m_TagString: Untagged
  m_Icon: {fileID: 0}
  m_NavMeshLayer: 0
  m_StaticEditorFlags: 0
  m_IsActive: 1
--- !u!4 &167906695
Transform:
  m_ObjectHideFlags: 0
  m_PrefabParentObject: {fileID: 0}
  m_PrefabInternal: {fileID: 0}
  m_GameObject: {fileID: 167906694}
  m_LocalRotation: {x: 0, y: 0, z: 0, w: 1}
  m_LocalPosition: {x: 0, y: 0, z: 0}
  m_LocalScale: {x: 1, y: 1, z: 1}
  m_Children: []
  m_Father: {fileID: 0}
  m_RootOrder: 3
--- !u!114 &167906696
MonoBehaviour:
  m_ObjectHideFlags: 0
  m_PrefabParentObject: {fileID: 0}
  m_PrefabInternal: {fileID: 0}
  m_GameObject: {fileID: 167906694}
  m_Enabled: 1
  m_EditorHideFlags: 0
  m_Script: {fileID: 11500000, guid: f0faeb18ae584d044a40c11b2d7d6d05, type: 3}
  m_Name: 
  m_EditorClassIdentifier: 
  leapMotionOVRController: {fileID: 1593226545}
  handController: {fileID: 1593226544}
  _mouseLookSensitivity: 21.7000008
  _moveSpeed: 3.50999999
--- !u!1 &201340410
GameObject:
  m_ObjectHideFlags: 0
  m_PrefabParentObject: {fileID: 192624, guid: 27f15dd5e6233af4b96aa57291abba30, type: 2}
  m_PrefabInternal: {fileID: 1593226543}
  serializedVersion: 4
  m_Component:
  - 4: {fileID: 201340411}
  - 114: {fileID: 1593226544}
  m_Layer: 0
  m_Name: LeapHandController
  m_TagString: Untagged
  m_Icon: {fileID: 0}
  m_NavMeshLayer: 0
  m_StaticEditorFlags: 0
  m_IsActive: 1
--- !u!4 &201340411
Transform:
  m_ObjectHideFlags: 0
  m_PrefabParentObject: {fileID: 475348, guid: 27f15dd5e6233af4b96aa57291abba30, type: 2}
  m_PrefabInternal: {fileID: 1593226543}
  m_GameObject: {fileID: 201340410}
  m_LocalRotation: {x: -3.09086232e-08, y: -.707106829, z: -.707106829, w: 3.09086232e-08}
  m_LocalPosition: {x: 0, y: 0, z: 0}
  m_LocalScale: {x: 1, y: 1, z: 1}
  m_Children: []
  m_Father: {fileID: 1741638430}
  m_RootOrder: 0
--- !u!1 &206152054
GameObject:
  m_ObjectHideFlags: 0
  m_PrefabParentObject: {fileID: 109958, guid: 27f15dd5e6233af4b96aa57291abba30, type: 2}
  m_PrefabInternal: {fileID: 1593226543}
  serializedVersion: 4
  m_Component:
  - 224: {fileID: 206152055}
  - 222: {fileID: 206152057}
  - 114: {fileID: 206152056}
  m_Layer: 5
  m_Name: Path
  m_TagString: Untagged
  m_Icon: {fileID: 0}
  m_NavMeshLayer: 0
  m_StaticEditorFlags: 0
  m_IsActive: 0
--- !u!224 &206152055
RectTransform:
  m_ObjectHideFlags: 0
  m_PrefabParentObject: {fileID: 22455652, guid: 27f15dd5e6233af4b96aa57291abba30,
    type: 2}
  m_PrefabInternal: {fileID: 1593226543}
  m_GameObject: {fileID: 206152054}
  m_LocalRotation: {x: 0, y: 0, z: 0, w: 1}
  m_LocalPosition: {x: 0, y: 0, z: -.00199997425}
  m_LocalScale: {x: .00100000005, y: .00100000005, z: .00100000005}
  m_Children: []
  m_Father: {fileID: 1695386898}
  m_RootOrder: 4
  m_AnchorMin: {x: .5, y: .5}
  m_AnchorMax: {x: .5, y: .5}
  m_AnchoredPosition: {x: 0, y: -.291996002}
  m_SizeDelta: {x: 1200, y: 250}
  m_Pivot: {x: .5, y: .5}
--- !u!114 &206152056
MonoBehaviour:
  m_ObjectHideFlags: 0
  m_PrefabParentObject: {fileID: 11464932, guid: 27f15dd5e6233af4b96aa57291abba30,
    type: 2}
  m_PrefabInternal: {fileID: 1593226543}
  m_GameObject: {fileID: 206152054}
  m_Enabled: 1
  m_EditorHideFlags: 0
  m_Script: {fileID: 708705254, guid: f5f67c52d1564df4a8936ccd202a3bd8, type: 3}
  m_Name: 
  m_EditorClassIdentifier: 
  m_Material: {fileID: 0}
  m_Color: {r: .125490203, g: .125490203, b: .125490203, a: 1}
  m_RaycastTarget: 1
  m_OnCullStateChanged:
    m_PersistentCalls:
      m_Calls: []
    m_TypeName: UnityEngine.UI.MaskableGraphic+CullStateChangedEvent, UnityEngine.UI,
      Version=1.0.0.0, Culture=neutral, PublicKeyToken=null
  m_FontData:
    m_Font: {fileID: 10102, guid: 0000000000000000e000000000000000, type: 0}
    m_FontSize: 50
    m_FontStyle: 0
    m_BestFit: 0
    m_MinSize: 10
    m_MaxSize: 40
    m_Alignment: 1
    m_RichText: 1
    m_HorizontalOverflow: 0
    m_VerticalOverflow: 0
    m_LineSpacing: 1
  m_Text: \Path\To\recording\here\
--- !u!222 &206152057
CanvasRenderer:
  m_ObjectHideFlags: 0
  m_PrefabParentObject: {fileID: 22254634, guid: 27f15dd5e6233af4b96aa57291abba30,
    type: 2}
  m_PrefabInternal: {fileID: 1593226543}
  m_GameObject: {fileID: 206152054}
--- !u!1 &215185590
GameObject:
  m_ObjectHideFlags: 0
  m_PrefabParentObject: {fileID: 0}
  m_PrefabInternal: {fileID: 0}
  serializedVersion: 4
  m_Component:
  - 4: {fileID: 215185594}
  - 33: {fileID: 215185593}
  - 64: {fileID: 215185592}
  - 23: {fileID: 215185591}
  m_Layer: 0
  m_Name: Quad
  m_TagString: Untagged
  m_Icon: {fileID: 0}
  m_NavMeshLayer: 0
  m_StaticEditorFlags: 0
  m_IsActive: 1
--- !u!23 &215185591
MeshRenderer:
  m_ObjectHideFlags: 0
  m_PrefabParentObject: {fileID: 0}
  m_PrefabInternal: {fileID: 0}
  m_GameObject: {fileID: 215185590}
  m_Enabled: 1
  m_CastShadows: 1
  m_ReceiveShadows: 1
  m_Materials:
  - {fileID: 2100000, guid: 87a604743bf5f40398127dbe52efcd6c, type: 2}
  m_SubsetIndices: 
  m_StaticBatchRoot: {fileID: 0}
  m_UseLightProbes: 0
  m_ReflectionProbeUsage: 1
  m_ProbeAnchor: {fileID: 0}
  m_ScaleInLightmap: 1
  m_PreserveUVs: 0
  m_IgnoreNormalsForChartDetection: 0
  m_ImportantGI: 0
  m_MinimumChartSize: 4
  m_AutoUVMaxDistance: .5
  m_AutoUVMaxAngle: 89
  m_LightmapParameters: {fileID: 0}
  m_SortingLayerID: 0
  m_SortingOrder: 0
--- !u!64 &215185592
MeshCollider:
  m_ObjectHideFlags: 0
  m_PrefabParentObject: {fileID: 0}
  m_PrefabInternal: {fileID: 0}
  m_GameObject: {fileID: 215185590}
  m_Material: {fileID: 0}
  m_IsTrigger: 0
  m_Enabled: 1
  serializedVersion: 2
  m_Convex: 0
  m_Mesh: {fileID: 10210, guid: 0000000000000000e000000000000000, type: 0}
--- !u!33 &215185593
MeshFilter:
  m_ObjectHideFlags: 0
  m_PrefabParentObject: {fileID: 0}
  m_PrefabInternal: {fileID: 0}
  m_GameObject: {fileID: 215185590}
  m_Mesh: {fileID: 10210, guid: 0000000000000000e000000000000000, type: 0}
--- !u!4 &215185594
Transform:
  m_ObjectHideFlags: 0
  m_PrefabParentObject: {fileID: 0}
  m_PrefabInternal: {fileID: 0}
  m_GameObject: {fileID: 215185590}
  m_LocalRotation: {x: .707106829, y: 0, z: 0, w: .707106829}
  m_LocalPosition: {x: 0, y: 0, z: 0}
  m_LocalScale: {x: 1000, y: 1000, z: 1000}
  m_Children: []
  m_Father: {fileID: 0}
  m_RootOrder: 0
--- !u!1 &231074812
GameObject:
  m_ObjectHideFlags: 0
  m_PrefabParentObject: {fileID: 149240, guid: 27f15dd5e6233af4b96aa57291abba30, type: 2}
  m_PrefabInternal: {fileID: 1593226543}
  serializedVersion: 4
  m_Component:
  - 4: {fileID: 231074813}
  - 81: {fileID: 231074816}
  - 20: {fileID: 231074814}
  - 114: {fileID: 231074815}
  m_Layer: 0
  m_Name: CenterEyeAnchor
  m_TagString: MainCamera
  m_Icon: {fileID: 0}
  m_NavMeshLayer: 0
  m_StaticEditorFlags: 0
  m_IsActive: 1
--- !u!4 &231074813
Transform:
  m_ObjectHideFlags: 0
  m_PrefabParentObject: {fileID: 413064, guid: 27f15dd5e6233af4b96aa57291abba30, type: 2}
  m_PrefabInternal: {fileID: 1593226543}
  m_GameObject: {fileID: 231074812}
  m_LocalRotation: {x: 0, y: 0, z: 0, w: 1}
  m_LocalPosition: {x: 0, y: 0, z: 0}
  m_LocalScale: {x: 1, y: 1, z: 1}
  m_Children:
  - {fileID: 1741638430}
  - {fileID: 409131583}
  m_Father: {fileID: 90985583}
  m_RootOrder: 1
--- !u!20 &231074814
Camera:
  m_ObjectHideFlags: 0
  m_PrefabParentObject: {fileID: 2063550, guid: 27f15dd5e6233af4b96aa57291abba30,
    type: 2}
  m_PrefabInternal: {fileID: 1593226543}
  m_GameObject: {fileID: 231074812}
  m_Enabled: 0
  serializedVersion: 2
  m_ClearFlags: 2
  m_BackGroundColor: {r: .192156866, g: .301960796, b: .474509805, a: .0196078438}
  m_NormalizedViewPortRect:
    serializedVersion: 2
    x: 0
    y: 0
    width: 1
    height: 1
  near clip plane: .00999999978
  far clip plane: 100
  field of view: 106.092003
  orthographic: 0
  orthographic size: 5
  m_Depth: 0
  m_CullingMask:
    serializedVersion: 2
    m_Bits: 4294967295
  m_RenderingPath: -1
  m_TargetTexture: {fileID: 0}
  m_TargetDisplay: 0
  m_TargetEye: 3
  m_HDR: 0
  m_OcclusionCulling: 1
  m_StereoConvergence: 10
  m_StereoSeparation: .0219999999
  m_StereoMirrorMode: 0
--- !u!114 &231074815
MonoBehaviour:
  m_ObjectHideFlags: 0
  m_PrefabParentObject: {fileID: 11431832, guid: 27f15dd5e6233af4b96aa57291abba30,
    type: 2}
  m_PrefabInternal: {fileID: 1593226543}
  m_GameObject: {fileID: 231074812}
  m_Enabled: 1
  m_EditorHideFlags: 0
  m_Script: {fileID: 11500000, guid: 4499ae867a57a90449cb9069c466ade0, type: 3}
  m_Name: 
  m_EditorClassIdentifier: 
--- !u!81 &231074816
AudioListener:
  m_ObjectHideFlags: 0
  m_PrefabParentObject: {fileID: 8138786, guid: 27f15dd5e6233af4b96aa57291abba30,
    type: 2}
  m_PrefabInternal: {fileID: 1593226543}
  m_GameObject: {fileID: 231074812}
  m_Enabled: 1
--- !u!1 &409131582
GameObject:
  m_ObjectHideFlags: 0
  m_PrefabParentObject: {fileID: 167456, guid: 27f15dd5e6233af4b96aa57291abba30, type: 2}
  m_PrefabInternal: {fileID: 1593226543}
  serializedVersion: 4
  m_Component:
  - 4: {fileID: 409131583}
  - 33: {fileID: 409131586}
  - 23: {fileID: 409131585}
  - 114: {fileID: 409131584}
  m_Layer: 0
  m_Name: QuadBackground
  m_TagString: Untagged
  m_Icon: {fileID: 0}
  m_NavMeshLayer: 0
  m_StaticEditorFlags: 0
  m_IsActive: 1
--- !u!4 &409131583
Transform:
  m_ObjectHideFlags: 0
  m_PrefabParentObject: {fileID: 491000, guid: 27f15dd5e6233af4b96aa57291abba30, type: 2}
  m_PrefabInternal: {fileID: 1593226543}
  m_GameObject: {fileID: 409131582}
  m_LocalRotation: {x: 0, y: 0, z: 0, w: 1}
  m_LocalPosition: {x: 0, y: 0, z: .136999995}
  m_LocalScale: {x: 1, y: 1, z: 1}
  m_Children: []
  m_Father: {fileID: 231074813}
  m_RootOrder: 1
--- !u!114 &409131584
MonoBehaviour:
  m_ObjectHideFlags: 0
  m_PrefabParentObject: {fileID: 11472234, guid: 27f15dd5e6233af4b96aa57291abba30,
    type: 2}
  m_PrefabInternal: {fileID: 1593226543}
  m_GameObject: {fileID: 409131582}
  m_Enabled: 1
  m_EditorHideFlags: 0
  m_Script: {fileID: 11500000, guid: 86aee74930bad8446a5eacc8f034bfac, type: 3}
  m_Name: 
  m_EditorClassIdentifier: 
  imageMode: 0
--- !u!23 &409131585
MeshRenderer:
  m_ObjectHideFlags: 0
  m_PrefabParentObject: {fileID: 2379350, guid: 27f15dd5e6233af4b96aa57291abba30,
    type: 2}
  m_PrefabInternal: {fileID: 1593226543}
  m_GameObject: {fileID: 409131582}
  m_Enabled: 1
  m_CastShadows: 0
  m_ReceiveShadows: 0
  m_Materials:
  - {fileID: 2100000, guid: a781c82cecc141143bb13e71d88efa99, type: 2}
  m_SubsetIndices: 
  m_StaticBatchRoot: {fileID: 0}
  m_UseLightProbes: 0
  m_ReflectionProbeUsage: 0
  m_ProbeAnchor: {fileID: 0}
  m_ScaleInLightmap: 1
  m_PreserveUVs: 0
  m_IgnoreNormalsForChartDetection: 0
  m_ImportantGI: 0
  m_MinimumChartSize: 4
  m_AutoUVMaxDistance: .5
  m_AutoUVMaxAngle: 89
  m_LightmapParameters: {fileID: 0}
  m_SortingLayerID: 0
  m_SortingOrder: 0
--- !u!33 &409131586
MeshFilter:
  m_ObjectHideFlags: 0
  m_PrefabParentObject: {fileID: 3334516, guid: 27f15dd5e6233af4b96aa57291abba30,
    type: 2}
  m_PrefabInternal: {fileID: 1593226543}
  m_GameObject: {fileID: 409131582}
  m_Mesh: {fileID: 10210, guid: 0000000000000000e000000000000000, type: 0}
--- !u!1 &748654863
GameObject:
  m_ObjectHideFlags: 0
  m_PrefabParentObject: {fileID: 0}
  m_PrefabInternal: {fileID: 0}
  serializedVersion: 4
  m_Component:
  - 4: {fileID: 748654864}
  - 114: {fileID: 748654865}
  m_Layer: 0
  m_Name: BlocksPlaneGenerator
  m_TagString: Untagged
  m_Icon: {fileID: 0}
  m_NavMeshLayer: 0
  m_StaticEditorFlags: 0
  m_IsActive: 1
--- !u!4 &748654864
Transform:
  m_ObjectHideFlags: 0
  m_PrefabParentObject: {fileID: 0}
  m_PrefabInternal: {fileID: 0}
  m_GameObject: {fileID: 748654863}
  m_LocalRotation: {x: 0, y: 0, z: 0, w: 1}
  m_LocalPosition: {x: 0, y: 0, z: 0}
  m_LocalScale: {x: 1, y: 1, z: 1}
  m_Children:
  - {fileID: 1900888292}
  m_Father: {fileID: 0}
  m_RootOrder: 2
--- !u!114 &748654865
MonoBehaviour:
  m_ObjectHideFlags: 0
  m_PrefabParentObject: {fileID: 0}
  m_PrefabInternal: {fileID: 0}
  m_GameObject: {fileID: 748654863}
  m_Enabled: 1
  m_EditorHideFlags: 0
  m_Script: {fileID: 11500000, guid: 8d0b8298cb6a2244e927966a1c0287d9, type: 3}
  m_Name: 
  m_EditorClassIdentifier: 
  CubePrimitive: {fileID: 1900888288}
  minRadius: .5
  maxRadius: 25
  numberOfBlocks: 100
  size: 2
--- !u!1 &887601516
GameObject:
  m_ObjectHideFlags: 0
  m_PrefabParentObject: {fileID: 146532, guid: 27f15dd5e6233af4b96aa57291abba30, type: 2}
  m_PrefabInternal: {fileID: 1593226543}
  serializedVersion: 4
  m_Component:
  - 224: {fileID: 887601517}
  - 222: {fileID: 887601519}
  - 114: {fileID: 887601518}
  m_Layer: 5
  m_Name: Progress
  m_TagString: Untagged
  m_Icon: {fileID: 0}
  m_NavMeshLayer: 0
  m_StaticEditorFlags: 0
  m_IsActive: 0
--- !u!224 &887601517
RectTransform:
  m_ObjectHideFlags: 0
  m_PrefabParentObject: {fileID: 22400752, guid: 27f15dd5e6233af4b96aa57291abba30,
    type: 2}
  m_PrefabInternal: {fileID: 1593226543}
  m_GameObject: {fileID: 887601516}
  m_LocalRotation: {x: 0, y: 0, z: 0, w: 1}
  m_LocalPosition: {x: 0, y: 0, z: 0}
  m_LocalScale: {x: 1, y: 1, z: 1}
  m_Children: []
  m_Father: {fileID: 1695386898}
  m_RootOrder: 0
  m_AnchorMin: {x: .5, y: .5}
  m_AnchorMax: {x: .5, y: .5}
  m_AnchoredPosition: {x: 0, y: 0}
  m_SizeDelta: {x: 1, y: .100000001}
  m_Pivot: {x: .5, y: .5}
--- !u!114 &887601518
MonoBehaviour:
  m_ObjectHideFlags: 0
  m_PrefabParentObject: {fileID: 11498298, guid: 27f15dd5e6233af4b96aa57291abba30,
    type: 2}
  m_PrefabInternal: {fileID: 1593226543}
  m_GameObject: {fileID: 887601516}
  m_Enabled: 1
  m_EditorHideFlags: 0
  m_Script: {fileID: -765806418, guid: f5f67c52d1564df4a8936ccd202a3bd8, type: 3}
  m_Name: 
  m_EditorClassIdentifier: 
  m_Material: {fileID: 0}
  m_Color: {r: 1, g: 1, b: 1, a: 1}
  m_RaycastTarget: 1
  m_OnCullStateChanged:
    m_PersistentCalls:
      m_Calls: []
    m_TypeName: UnityEngine.UI.MaskableGraphic+CullStateChangedEvent, UnityEngine.UI,
      Version=1.0.0.0, Culture=neutral, PublicKeyToken=null
  m_Sprite: {fileID: 21300000, guid: 98a9ddf13b05841cc967678d0dcaad7f, type: 3}
  m_Type: 3
  m_PreserveAspect: 0
  m_FillCenter: 1
  m_FillMethod: 0
  m_FillAmount: 1
  m_FillClockwise: 1
  m_FillOrigin: 0
--- !u!222 &887601519
CanvasRenderer:
  m_ObjectHideFlags: 0
  m_PrefabParentObject: {fileID: 22271322, guid: 27f15dd5e6233af4b96aa57291abba30,
    type: 2}
  m_PrefabInternal: {fileID: 1593226543}
  m_GameObject: {fileID: 887601516}
--- !u!1 &987375332
GameObject:
  m_ObjectHideFlags: 0
  m_PrefabParentObject: {fileID: 124088, guid: 27f15dd5e6233af4b96aa57291abba30, type: 2}
  m_PrefabInternal: {fileID: 1593226543}
  serializedVersion: 4
  m_Component:
  - 4: {fileID: 987375333}
  - 20: {fileID: 987375334}
  - 114: {fileID: 987375336}
  - 114: {fileID: 987375335}
  m_Layer: 0
  m_Name: LeftEyeAnchor
  m_TagString: Untagged
  m_Icon: {fileID: 0}
  m_NavMeshLayer: 0
  m_StaticEditorFlags: 0
  m_IsActive: 1
--- !u!4 &987375333
Transform:
  m_ObjectHideFlags: 0
  m_PrefabParentObject: {fileID: 488068, guid: 27f15dd5e6233af4b96aa57291abba30, type: 2}
  m_PrefabInternal: {fileID: 1593226543}
  m_GameObject: {fileID: 987375332}
  m_LocalRotation: {x: 0, y: 0, z: 0, w: 1}
  m_LocalPosition: {x: 0, y: 0, z: 0}
  m_LocalScale: {x: 1, y: 1, z: 1}
  m_Children: []
  m_Father: {fileID: 90985583}
  m_RootOrder: 0
--- !u!20 &987375334
Camera:
  m_ObjectHideFlags: 0
  m_PrefabParentObject: {fileID: 2079510, guid: 27f15dd5e6233af4b96aa57291abba30,
    type: 2}
  m_PrefabInternal: {fileID: 1593226543}
  m_GameObject: {fileID: 987375332}
  m_Enabled: 1
  serializedVersion: 2
  m_ClearFlags: 2
  m_BackGroundColor: {r: .192156866, g: .301960796, b: .474509805, a: .0196078438}
  m_NormalizedViewPortRect:
    serializedVersion: 2
    x: 0
    y: 0
    width: 1
    height: 1
  near clip plane: .00999999978
  far clip plane: 100
  field of view: 106.092003
  orthographic: 0
  orthographic size: 5
  m_Depth: 0
  m_CullingMask:
    serializedVersion: 2
    m_Bits: 4294967295
  m_RenderingPath: -1
  m_TargetTexture: {fileID: 0}
  m_TargetDisplay: 0
  m_TargetEye: 1
  m_HDR: 0
  m_OcclusionCulling: 1
  m_StereoConvergence: 10
  m_StereoSeparation: .0219999999
  m_StereoMirrorMode: 0
--- !u!114 &987375335
MonoBehaviour:
  m_ObjectHideFlags: 0
  m_PrefabParentObject: {fileID: 11499054, guid: 27f15dd5e6233af4b96aa57291abba30,
    type: 2}
  m_PrefabInternal: {fileID: 1593226543}
  m_GameObject: {fileID: 987375332}
  m_Enabled: 1
  m_EditorHideFlags: 0
  m_Script: {fileID: 11500000, guid: fd815635398474cbbba564563a209f82, type: 3}
  m_Name: 
  m_EditorClassIdentifier: 
  retrievedEye: 0
  syncMode: 0
  gammaCorrection: 1
  handController: {fileID: 1593226544}
--- !u!114 &987375336
MonoBehaviour:
  m_ObjectHideFlags: 0
  m_PrefabParentObject: {fileID: 11437020, guid: 27f15dd5e6233af4b96aa57291abba30,
    type: 2}
  m_PrefabInternal: {fileID: 1593226543}
  m_GameObject: {fileID: 987375332}
  m_Enabled: 1
  m_EditorHideFlags: 0
  m_Script: {fileID: 11500000, guid: 4499ae867a57a90449cb9069c466ade0, type: 3}
  m_Name: 
  m_EditorClassIdentifier: 
--- !u!1 &1288091939
GameObject:
  m_ObjectHideFlags: 0
  m_PrefabParentObject: {fileID: 163430, guid: 27f15dd5e6233af4b96aa57291abba30, type: 2}
  m_PrefabInternal: {fileID: 1593226543}
  serializedVersion: 4
  m_Component:
  - 224: {fileID: 1288091940}
  - 222: {fileID: 1288091942}
  - 114: {fileID: 1288091941}
  m_Layer: 5
  m_Name: ProgressBar
  m_TagString: Untagged
  m_Icon: {fileID: 0}
  m_NavMeshLayer: 0
  m_StaticEditorFlags: 0
  m_IsActive: 0
--- !u!224 &1288091940
RectTransform:
  m_ObjectHideFlags: 0
  m_PrefabParentObject: {fileID: 22453394, guid: 27f15dd5e6233af4b96aa57291abba30,
    type: 2}
  m_PrefabInternal: {fileID: 1593226543}
  m_GameObject: {fileID: 1288091939}
  m_LocalRotation: {x: 0, y: 0, z: 0, w: 1}
  m_LocalPosition: {x: 0, y: 0, z: -.00100000005}
  m_LocalScale: {x: 1, y: 1, z: 1}
  m_Children: []
  m_Father: {fileID: 1695386898}
  m_RootOrder: 1
  m_AnchorMin: {x: .5, y: .5}
  m_AnchorMax: {x: .5, y: .5}
  m_AnchoredPosition: {x: 0, y: 0}
  m_SizeDelta: {x: 1, y: .100000001}
  m_Pivot: {x: .5, y: .5}
--- !u!114 &1288091941
MonoBehaviour:
  m_ObjectHideFlags: 0
  m_PrefabParentObject: {fileID: 11495540, guid: 27f15dd5e6233af4b96aa57291abba30,
    type: 2}
  m_PrefabInternal: {fileID: 1593226543}
  m_GameObject: {fileID: 1288091939}
  m_Enabled: 1
  m_EditorHideFlags: 0
  m_Script: {fileID: -765806418, guid: f5f67c52d1564df4a8936ccd202a3bd8, type: 3}
  m_Name: 
  m_EditorClassIdentifier: 
  m_Material: {fileID: 0}
  m_Color: {r: 1, g: 1, b: 1, a: 1}
  m_RaycastTarget: 1
  m_OnCullStateChanged:
    m_PersistentCalls:
      m_Calls: []
    m_TypeName: UnityEngine.UI.MaskableGraphic+CullStateChangedEvent, UnityEngine.UI,
      Version=1.0.0.0, Culture=neutral, PublicKeyToken=null
  m_Sprite: {fileID: 21300000, guid: 6b0b076b24e324bcea48d435c8a502d2, type: 3}
  m_Type: 0
  m_PreserveAspect: 0
  m_FillCenter: 1
  m_FillMethod: 0
  m_FillAmount: 1
  m_FillClockwise: 1
  m_FillOrigin: 0
--- !u!222 &1288091942
CanvasRenderer:
  m_ObjectHideFlags: 0
  m_PrefabParentObject: {fileID: 22218246, guid: 27f15dd5e6233af4b96aa57291abba30,
    type: 2}
  m_PrefabInternal: {fileID: 1593226543}
  m_GameObject: {fileID: 1288091939}
--- !u!1 &1516338015
GameObject:
  m_ObjectHideFlags: 0
  m_PrefabParentObject: {fileID: 145560, guid: 27f15dd5e6233af4b96aa57291abba30, type: 2}
  m_PrefabInternal: {fileID: 1593226543}
  serializedVersion: 4
  m_Component:
  - 224: {fileID: 1516338018}
  - 222: {fileID: 1516338017}
  - 114: {fileID: 1516338016}
  m_Layer: 5
  m_Name: Instructions
  m_TagString: Untagged
  m_Icon: {fileID: 0}
  m_NavMeshLayer: 0
  m_StaticEditorFlags: 0
  m_IsActive: 0
--- !u!114 &1516338016
MonoBehaviour:
  m_ObjectHideFlags: 0
  m_PrefabParentObject: {fileID: 11493374, guid: 27f15dd5e6233af4b96aa57291abba30,
    type: 2}
  m_PrefabInternal: {fileID: 1593226543}
  m_GameObject: {fileID: 1516338015}
  m_Enabled: 1
  m_EditorHideFlags: 0
  m_Script: {fileID: 708705254, guid: f5f67c52d1564df4a8936ccd202a3bd8, type: 3}
  m_Name: 
  m_EditorClassIdentifier: 
  m_Material: {fileID: 0}
  m_Color: {r: .125490203, g: .125490203, b: .125490203, a: 1}
  m_RaycastTarget: 1
  m_OnCullStateChanged:
    m_PersistentCalls:
      m_Calls: []
    m_TypeName: UnityEngine.UI.MaskableGraphic+CullStateChangedEvent, UnityEngine.UI,
      Version=1.0.0.0, Culture=neutral, PublicKeyToken=null
  m_FontData:
    m_Font: {fileID: 10102, guid: 0000000000000000e000000000000000, type: 0}
    m_FontSize: 50
    m_FontStyle: 0
    m_BestFit: 0
    m_MinSize: 10
    m_MaxSize: 40
    m_Alignment: 4
    m_RichText: 1
    m_HorizontalOverflow: 0
    m_VerticalOverflow: 0
    m_LineSpacing: 1
  m_Text: HOLD 'LEFTSHIFT' AND PRESS 'TAB' TO RECORD
--- !u!222 &1516338017
CanvasRenderer:
  m_ObjectHideFlags: 0
  m_PrefabParentObject: {fileID: 22215050, guid: 27f15dd5e6233af4b96aa57291abba30,
    type: 2}
  m_PrefabInternal: {fileID: 1593226543}
  m_GameObject: {fileID: 1516338015}
--- !u!224 &1516338018
RectTransform:
  m_ObjectHideFlags: 0
  m_PrefabParentObject: {fileID: 22479166, guid: 27f15dd5e6233af4b96aa57291abba30,
    type: 2}
  m_PrefabInternal: {fileID: 1593226543}
  m_GameObject: {fileID: 1516338015}
  m_LocalRotation: {x: 0, y: 0, z: 0, w: 1}
  m_LocalPosition: {x: 0, y: 0, z: -.00200000009}
  m_LocalScale: {x: .00100000005, y: .00100000005, z: .00100000005}
  m_Children: []
  m_Father: {fileID: 1695386898}
  m_RootOrder: 3
  m_AnchorMin: {x: .5, y: .5}
  m_AnchorMax: {x: .5, y: .5}
  m_AnchoredPosition: {x: 0, y: -.100000001}
  m_SizeDelta: {x: 1200, y: 100}
  m_Pivot: {x: .5, y: .5}
--- !u!1 &1584201773
GameObject:
  m_ObjectHideFlags: 0
  m_PrefabParentObject: {fileID: 196488, guid: 27f15dd5e6233af4b96aa57291abba30, type: 2}
  m_PrefabInternal: {fileID: 1593226543}
  serializedVersion: 4
  m_Component:
  - 4: {fileID: 1584201774}
  - 20: {fileID: 1584201777}
  - 114: {fileID: 1584201776}
  - 114: {fileID: 1584201775}
  m_Layer: 0
  m_Name: RightEyeAnchor
  m_TagString: Untagged
  m_Icon: {fileID: 0}
  m_NavMeshLayer: 0
  m_StaticEditorFlags: 0
  m_IsActive: 1
--- !u!4 &1584201774
Transform:
  m_ObjectHideFlags: 0
  m_PrefabParentObject: {fileID: 449566, guid: 27f15dd5e6233af4b96aa57291abba30, type: 2}
  m_PrefabInternal: {fileID: 1593226543}
  m_GameObject: {fileID: 1584201773}
  m_LocalRotation: {x: 0, y: 0, z: 0, w: 1}
  m_LocalPosition: {x: 0, y: 0, z: 0}
  m_LocalScale: {x: 1, y: 1, z: 1}
  m_Children: []
  m_Father: {fileID: 90985583}
  m_RootOrder: 2
--- !u!114 &1584201775
MonoBehaviour:
  m_ObjectHideFlags: 0
  m_PrefabParentObject: {fileID: 11499282, guid: 27f15dd5e6233af4b96aa57291abba30,
    type: 2}
  m_PrefabInternal: {fileID: 1593226543}
  m_GameObject: {fileID: 1584201773}
  m_Enabled: 1
  m_EditorHideFlags: 0
  m_Script: {fileID: 11500000, guid: fd815635398474cbbba564563a209f82, type: 3}
  m_Name: 
  m_EditorClassIdentifier: 
  retrievedEye: 1
  syncMode: 0
  gammaCorrection: 1
  handController: {fileID: 1593226544}
--- !u!114 &1584201776
MonoBehaviour:
  m_ObjectHideFlags: 0
  m_PrefabParentObject: {fileID: 11466922, guid: 27f15dd5e6233af4b96aa57291abba30,
    type: 2}
  m_PrefabInternal: {fileID: 1593226543}
  m_GameObject: {fileID: 1584201773}
  m_Enabled: 1
  m_EditorHideFlags: 0
  m_Script: {fileID: 11500000, guid: 4499ae867a57a90449cb9069c466ade0, type: 3}
  m_Name: 
  m_EditorClassIdentifier: 
--- !u!20 &1584201777
Camera:
  m_ObjectHideFlags: 0
  m_PrefabParentObject: {fileID: 2040898, guid: 27f15dd5e6233af4b96aa57291abba30,
    type: 2}
  m_PrefabInternal: {fileID: 1593226543}
  m_GameObject: {fileID: 1584201773}
  m_Enabled: 1
  serializedVersion: 2
  m_ClearFlags: 2
  m_BackGroundColor: {r: .192156866, g: .301960796, b: .474509805, a: .0196078438}
  m_NormalizedViewPortRect:
    serializedVersion: 2
    x: 0
    y: 0
    width: 1
    height: 1
  near clip plane: .00999999978
  far clip plane: 100
  field of view: 106.092003
  orthographic: 0
  orthographic size: 5
  m_Depth: 0
  m_CullingMask:
    serializedVersion: 2
    m_Bits: 4294967295
  m_RenderingPath: -1
  m_TargetTexture: {fileID: 0}
  m_TargetDisplay: 0
  m_TargetEye: 2
  m_HDR: 0
  m_OcclusionCulling: 1
  m_StereoConvergence: 10
  m_StereoSeparation: .0219999999
  m_StereoMirrorMode: 0
--- !u!1001 &1593226543
Prefab:
  m_ObjectHideFlags: 0
  serializedVersion: 2
  m_Modification:
    m_TransformParent: {fileID: 0}
    m_Modifications:
    - target: {fileID: 410996, guid: 27f15dd5e6233af4b96aa57291abba30, type: 2}
      propertyPath: m_LocalPosition.x
      value: 0
      objectReference: {fileID: 0}
    - target: {fileID: 410996, guid: 27f15dd5e6233af4b96aa57291abba30, type: 2}
      propertyPath: m_LocalPosition.y
      value: 1.09000003
      objectReference: {fileID: 0}
    - target: {fileID: 410996, guid: 27f15dd5e6233af4b96aa57291abba30, type: 2}
      propertyPath: m_LocalPosition.z
      value: 0
      objectReference: {fileID: 0}
    - target: {fileID: 410996, guid: 27f15dd5e6233af4b96aa57291abba30, type: 2}
      propertyPath: m_LocalRotation.x
      value: 0
      objectReference: {fileID: 0}
    - target: {fileID: 410996, guid: 27f15dd5e6233af4b96aa57291abba30, type: 2}
      propertyPath: m_LocalRotation.y
      value: 0
      objectReference: {fileID: 0}
    - target: {fileID: 410996, guid: 27f15dd5e6233af4b96aa57291abba30, type: 2}
      propertyPath: m_LocalRotation.z
      value: 0
      objectReference: {fileID: 0}
    - target: {fileID: 410996, guid: 27f15dd5e6233af4b96aa57291abba30, type: 2}
      propertyPath: m_LocalRotation.w
      value: 1
      objectReference: {fileID: 0}
    - target: {fileID: 410996, guid: 27f15dd5e6233af4b96aa57291abba30, type: 2}
      propertyPath: m_RootOrder
      value: 4
      objectReference: {fileID: 0}
    m_RemovedComponents: []
  m_ParentPrefab: {fileID: 100100000, guid: 27f15dd5e6233af4b96aa57291abba30, type: 2}
  m_RootGameObject: {fileID: 1593226545}
  m_IsPrefabParent: 0
--- !u!114 &1593226544
MonoBehaviour:
  m_ObjectHideFlags: 0
  m_PrefabParentObject: {fileID: 11453054, guid: 27f15dd5e6233af4b96aa57291abba30,
    type: 2}
  m_PrefabInternal: {fileID: 1593226543}
  m_GameObject: {fileID: 201340410}
  m_Enabled: 1
  m_EditorHideFlags: 0
  m_Script: {fileID: 11500000, guid: 2c4e0350c46ae405b8db39262c18b8f5, type: 3}
  m_Name: 
  m_EditorClassIdentifier: 
  separateLeftRight: 1
  leftGraphicsModel: {fileID: 11400008, guid: e9fcde724db27af479a62244440b8b18, type: 2}
  leftPhysicsModel: {fileID: 11460542, guid: dc02f2d83c1ac4b4d9b4ec82df1b1732, type: 2}
  rightGraphicsModel: {fileID: 11400006, guid: 38c9cece84724db4c9a5bfcbdf2e2115, type: 2}
  rightPhysicsModel: {fileID: 11460542, guid: dc02f2d83c1ac4b4d9b4ec82df1b1732, type: 2}
  useCameraControl: 0
  toolModel: {fileID: 0}
  isHeadMounted: 1
  mirrorZAxis: 0
  destroyHands: 1
  handMovementScale: {x: 1, y: 1, z: 1}
  enableRecordPlayback: 0
  recordingAsset: {fileID: 0}
  recorderSpeed: 1
  recorderLoop: 1
--- !u!1 &1593226545
GameObject:
  m_ObjectHideFlags: 0
  m_PrefabParentObject: {fileID: 186978, guid: 27f15dd5e6233af4b96aa57291abba30, type: 2}
  m_PrefabInternal: {fileID: 1593226543}
  serializedVersion: 4
  m_Component:
  - 4: {fileID: 1593226546}
  - 114: {fileID: 1593226547}
  m_Layer: 0
  m_Name: LMHeadMountedRig
  m_TagString: Untagged
  m_Icon: {fileID: 0}
  m_NavMeshLayer: 0
  m_StaticEditorFlags: 0
  m_IsActive: 1
--- !u!4 &1593226546
Transform:
  m_ObjectHideFlags: 0
  m_PrefabParentObject: {fileID: 410996, guid: 27f15dd5e6233af4b96aa57291abba30, type: 2}
  m_PrefabInternal: {fileID: 1593226543}
  m_GameObject: {fileID: 1593226545}
  m_LocalRotation: {x: 0, y: 0, z: 0, w: 1}
  m_LocalPosition: {x: 0, y: 1.09000003, z: 0}
  m_LocalScale: {x: 1, y: 1, z: 1}
  m_Children:
  - {fileID: 90985583}
  m_Father: {fileID: 0}
  m_RootOrder: 4
--- !u!114 &1593226547
MonoBehaviour:
  m_ObjectHideFlags: 0
  m_PrefabParentObject: {fileID: 11468790, guid: 27f15dd5e6233af4b96aa57291abba30,
    type: 2}
  m_PrefabInternal: {fileID: 1593226543}
  m_GameObject: {fileID: 1593226545}
  m_Enabled: 1
  m_EditorHideFlags: 0
  m_Script: {fileID: 11500000, guid: 8704e1ff1587cfc4cb83fec10724bec1, type: 3}
  m_Name: 
  m_EditorClassIdentifier: 
  _configuration: 2
  _headMountedConfigurations:
  - _configurationName: VR_WORLD_VR_HANDS
    _enableBackgroundQuad: 0
    _leftHandGraphicsModel: {fileID: 11400000, guid: 9ae8a8acf486840e19397b18a914d915,
      type: 2}
    _rightHandGraphicsModel: {fileID: 11400010, guid: 0c6c9cacc3ef1487daa06cb206b2f421,
      type: 2}
    _enableLeftAndRightCameras: 0
    _enableLeftAndRightImageRetrievers: 0
    _enableCenterCamera: 1
    _cameraClearFlags: 1
    _tweenTimewarp: 0
    _tweenPosition: 0
    _tweenForward: 0
  - _configurationName: VR_WORLD_AR_HANDS
    _enableBackgroundQuad: 0
    _leftHandGraphicsModel: {fileID: 11400008, guid: e9fcde724db27af479a62244440b8b18,
      type: 2}
    _rightHandGraphicsModel: {fileID: 11400006, guid: 38c9cece84724db4c9a5bfcbdf2e2115,
      type: 2}
    _enableLeftAndRightCameras: 1
    _enableLeftAndRightImageRetrievers: 1
    _enableCenterCamera: 0
    _cameraClearFlags: 2
    _tweenTimewarp: 1
    _tweenPosition: 1
    _tweenForward: 1
  - _configurationName: AR_WORLD_AR_HANDS
    _enableBackgroundQuad: 1
    _leftHandGraphicsModel: {fileID: 11400008, guid: e9fcde724db27af479a62244440b8b18,
      type: 2}
    _rightHandGraphicsModel: {fileID: 11400006, guid: 38c9cece84724db4c9a5bfcbdf2e2115,
      type: 2}
    _enableLeftAndRightCameras: 1
    _enableLeftAndRightImageRetrievers: 1
    _enableCenterCamera: 0
    _cameraClearFlags: 2
    _tweenTimewarp: 1
    _tweenPosition: 1
    _tweenForward: 1
  _backgroundQuad: {fileID: 409131582}
  _handController: {fileID: 1593226544}
  _leftCamera: {fileID: 987375334}
  _rightCamera: {fileID: 1584201777}
  _centerCamera: {fileID: 231074814}
  _aligner: {fileID: 90985584}
--- !u!1 &1695386897
GameObject:
  m_ObjectHideFlags: 0
  m_PrefabParentObject: {fileID: 104178, guid: 27f15dd5e6233af4b96aa57291abba30, type: 2}
  m_PrefabInternal: {fileID: 1593226543}
  serializedVersion: 4
  m_Component:
  - 224: {fileID: 1695386898}
  - 223: {fileID: 1695386902}
  - 114: {fileID: 1695386901}
  - 114: {fileID: 1695386900}
  - 114: {fileID: 1695386899}
  m_Layer: 5
  m_Name: BugReporter
  m_TagString: Untagged
  m_Icon: {fileID: 0}
  m_NavMeshLayer: 0
  m_StaticEditorFlags: 0
  m_IsActive: 1
--- !u!224 &1695386898
RectTransform:
  m_ObjectHideFlags: 0
  m_PrefabParentObject: {fileID: 22474050, guid: 27f15dd5e6233af4b96aa57291abba30,
    type: 2}
  m_PrefabInternal: {fileID: 1593226543}
  m_GameObject: {fileID: 1695386897}
  m_LocalRotation: {x: 0, y: 0, z: 0, w: 1}
  m_LocalPosition: {x: 0, y: 0, z: .75}
  m_LocalScale: {x: .5, y: .5, z: .5}
  m_Children:
  - {fileID: 887601517}
  - {fileID: 1288091940}
  - {fileID: 1785531900}
  - {fileID: 1516338018}
  - {fileID: 206152055}
  m_Father: {fileID: 1741638430}
  m_RootOrder: 1
  m_AnchorMin: {x: 0, y: 0}
  m_AnchorMax: {x: 0, y: 0}
  m_AnchoredPosition: {x: 0, y: 0}
  m_SizeDelta: {x: 1218, y: 685}
  m_Pivot: {x: .5, y: .5}
--- !u!114 &1695386899
MonoBehaviour:
  m_ObjectHideFlags: 0
  m_PrefabParentObject: {fileID: 11481878, guid: 27f15dd5e6233af4b96aa57291abba30,
    type: 2}
  m_PrefabInternal: {fileID: 1593226543}
  m_GameObject: {fileID: 1695386897}
  m_Enabled: 1
  m_EditorHideFlags: 0
  m_Script: {fileID: 11500000, guid: 2db87f78617c0154da192f13e908efe8, type: 3}
  m_Name: 
  m_EditorClassIdentifier: 
  m_interfaceEnabled: 0
  unlockStart: 304
  changeState: 9
  handController: {fileID: 1593226544}
  progressStatus: {fileID: 887601518}
  progressBar: {fileID: 1288091941}
  progressText: {fileID: 1785531901}
  instructionText: {fileID: 1516338016}
  savedpathsText: {fileID: 206152056}
  synchronizeRecorder: {fileID: 0}
  saveReplayFrames: 1
--- !u!114 &1695386900
MonoBehaviour:
  m_ObjectHideFlags: 0
  m_PrefabParentObject: {fileID: 11410098, guid: 27f15dd5e6233af4b96aa57291abba30,
    type: 2}
  m_PrefabInternal: {fileID: 1593226543}
  m_GameObject: {fileID: 1695386897}
  m_Enabled: 1
  m_EditorHideFlags: 0
  m_Script: {fileID: 1301386320, guid: f5f67c52d1564df4a8936ccd202a3bd8, type: 3}
  m_Name: 
  m_EditorClassIdentifier: 
  m_IgnoreReversedGraphics: 1
  m_BlockingObjects: 0
  m_BlockingMask:
    serializedVersion: 2
    m_Bits: 4294967295
--- !u!114 &1695386901
MonoBehaviour:
  m_ObjectHideFlags: 0
  m_PrefabParentObject: {fileID: 11477632, guid: 27f15dd5e6233af4b96aa57291abba30,
    type: 2}
  m_PrefabInternal: {fileID: 1593226543}
  m_GameObject: {fileID: 1695386897}
  m_Enabled: 1
  m_EditorHideFlags: 0
  m_Script: {fileID: 1980459831, guid: f5f67c52d1564df4a8936ccd202a3bd8, type: 3}
  m_Name: 
  m_EditorClassIdentifier: 
  m_UiScaleMode: 0
  m_ReferencePixelsPerUnit: 100
  m_ScaleFactor: 1
  m_ReferenceResolution: {x: 800, y: 600}
  m_ScreenMatchMode: 0
  m_MatchWidthOrHeight: 0
  m_PhysicalUnit: 3
  m_FallbackScreenDPI: 96
  m_DefaultSpriteDPI: 96
  m_DynamicPixelsPerUnit: 1
--- !u!223 &1695386902
Canvas:
  m_ObjectHideFlags: 0
  m_PrefabParentObject: {fileID: 22386200, guid: 27f15dd5e6233af4b96aa57291abba30,
    type: 2}
  m_PrefabInternal: {fileID: 1593226543}
  m_GameObject: {fileID: 1695386897}
  m_Enabled: 1
  serializedVersion: 2
  m_RenderMode: 2
  m_Camera: {fileID: 0}
  m_PlaneDistance: 100
  m_PixelPerfect: 0
  m_ReceivesEvents: 1
  m_OverrideSorting: 0
  m_OverridePixelPerfect: 0
  m_SortingLayerID: 0
  m_SortingOrder: 0
--- !u!1 &1741638429
GameObject:
  m_ObjectHideFlags: 0
  m_PrefabParentObject: {fileID: 189900, guid: 27f15dd5e6233af4b96aa57291abba30, type: 2}
  m_PrefabInternal: {fileID: 1593226543}
  serializedVersion: 4
  m_Component:
  - 4: {fileID: 1741638430}
  m_Layer: 0
  m_Name: HeadMount
  m_TagString: Untagged
  m_Icon: {fileID: 0}
  m_NavMeshLayer: 0
  m_StaticEditorFlags: 0
  m_IsActive: 1
--- !u!4 &1741638430
Transform:
  m_ObjectHideFlags: 0
  m_PrefabParentObject: {fileID: 467504, guid: 27f15dd5e6233af4b96aa57291abba30, type: 2}
  m_PrefabInternal: {fileID: 1593226543}
  m_GameObject: {fileID: 1741638429}
  m_LocalRotation: {x: 0, y: 0, z: 0, w: 1}
  m_LocalPosition: {x: 0, y: 0, z: 0}
  m_LocalScale: {x: 1, y: 1, z: 1}
  m_Children:
  - {fileID: 201340411}
  - {fileID: 1695386898}
  m_Father: {fileID: 231074813}
  m_RootOrder: 0
--- !u!1 &1785531899
GameObject:
  m_ObjectHideFlags: 0
  m_PrefabParentObject: {fileID: 164534, guid: 27f15dd5e6233af4b96aa57291abba30, type: 2}
  m_PrefabInternal: {fileID: 1593226543}
  serializedVersion: 4
  m_Component:
  - 224: {fileID: 1785531900}
  - 222: {fileID: 1785531902}
  - 114: {fileID: 1785531901}
  m_Layer: 5
  m_Name: Text
  m_TagString: Untagged
  m_Icon: {fileID: 0}
  m_NavMeshLayer: 0
  m_StaticEditorFlags: 0
  m_IsActive: 0
--- !u!224 &1785531900
RectTransform:
  m_ObjectHideFlags: 0
  m_PrefabParentObject: {fileID: 22462918, guid: 27f15dd5e6233af4b96aa57291abba30,
    type: 2}
  m_PrefabInternal: {fileID: 1593226543}
  m_GameObject: {fileID: 1785531899}
  m_LocalRotation: {x: 0, y: 0, z: 0, w: 1}
  m_LocalPosition: {x: 0, y: 0, z: -.00200000009}
  m_LocalScale: {x: .00100000005, y: .00100000005, z: .00100000005}
  m_Children: []
  m_Father: {fileID: 1695386898}
  m_RootOrder: 2
  m_AnchorMin: {x: .5, y: .5}
  m_AnchorMax: {x: .5, y: .5}
  m_AnchoredPosition: {x: 0, y: 0}
  m_SizeDelta: {x: 1000, y: 100}
  m_Pivot: {x: .5, y: .5}
--- !u!114 &1785531901
MonoBehaviour:
  m_ObjectHideFlags: 0
  m_PrefabParentObject: {fileID: 11480634, guid: 27f15dd5e6233af4b96aa57291abba30,
    type: 2}
  m_PrefabInternal: {fileID: 1593226543}
  m_GameObject: {fileID: 1785531899}
  m_Enabled: 1
  m_EditorHideFlags: 0
  m_Script: {fileID: 708705254, guid: f5f67c52d1564df4a8936ccd202a3bd8, type: 3}
  m_Name: 
  m_EditorClassIdentifier: 
  m_Material: {fileID: 0}
  m_Color: {r: 0, g: 1, b: .00689649582, a: 1}
  m_RaycastTarget: 1
  m_OnCullStateChanged:
    m_PersistentCalls:
      m_Calls: []
    m_TypeName: UnityEngine.UI.MaskableGraphic+CullStateChangedEvent, UnityEngine.UI,
      Version=1.0.0.0, Culture=neutral, PublicKeyToken=null
  m_FontData:
    m_Font: {fileID: 10102, guid: 0000000000000000e000000000000000, type: 0}
    m_FontSize: 50
    m_FontStyle: 0
    m_BestFit: 0
    m_MinSize: 10
    m_MaxSize: 40
    m_Alignment: 4
    m_RichText: 1
    m_HorizontalOverflow: 0
    m_VerticalOverflow: 0
    m_LineSpacing: 1
  m_Text: READY
--- !u!222 &1785531902
CanvasRenderer:
  m_ObjectHideFlags: 0
  m_PrefabParentObject: {fileID: 22245860, guid: 27f15dd5e6233af4b96aa57291abba30,
    type: 2}
  m_PrefabInternal: {fileID: 1593226543}
  m_GameObject: {fileID: 1785531899}
--- !u!1 &1900888288
GameObject:
  m_ObjectHideFlags: 0
  m_PrefabParentObject: {fileID: 0}
  m_PrefabInternal: {fileID: 0}
  serializedVersion: 4
  m_Component:
  - 4: {fileID: 1900888292}
  - 33: {fileID: 1900888291}
  - 65: {fileID: 1900888290}
  - 23: {fileID: 1900888289}
  m_Layer: 0
  m_Name: Cube
  m_TagString: Untagged
  m_Icon: {fileID: 0}
  m_NavMeshLayer: 0
  m_StaticEditorFlags: 0
  m_IsActive: 0
--- !u!23 &1900888289
MeshRenderer:
  m_ObjectHideFlags: 0
  m_PrefabParentObject: {fileID: 0}
  m_PrefabInternal: {fileID: 0}
  m_GameObject: {fileID: 1900888288}
  m_Enabled: 1
  m_CastShadows: 1
  m_ReceiveShadows: 1
  m_Materials:
  - {fileID: 10303, guid: 0000000000000000f000000000000000, type: 0}
  m_SubsetIndices: 
  m_StaticBatchRoot: {fileID: 0}
  m_UseLightProbes: 1
  m_ReflectionProbeUsage: 1
  m_ProbeAnchor: {fileID: 0}
  m_ScaleInLightmap: 1
  m_PreserveUVs: 1
  m_IgnoreNormalsForChartDetection: 0
  m_ImportantGI: 0
  m_MinimumChartSize: 4
  m_AutoUVMaxDistance: .5
  m_AutoUVMaxAngle: 89
  m_LightmapParameters: {fileID: 0}
  m_SortingLayerID: 0
  m_SortingOrder: 0
--- !u!65 &1900888290
BoxCollider:
  m_ObjectHideFlags: 0
  m_PrefabParentObject: {fileID: 0}
  m_PrefabInternal: {fileID: 0}
  m_GameObject: {fileID: 1900888288}
  m_Material: {fileID: 0}
  m_IsTrigger: 0
  m_Enabled: 1
  serializedVersion: 2
  m_Size: {x: 1, y: 1, z: 1}
  m_Center: {x: 0, y: 0, z: 0}
--- !u!33 &1900888291
MeshFilter:
  m_ObjectHideFlags: 0
  m_PrefabParentObject: {fileID: 0}
  m_PrefabInternal: {fileID: 0}
  m_GameObject: {fileID: 1900888288}
  m_Mesh: {fileID: 10202, guid: 0000000000000000e000000000000000, type: 0}
--- !u!4 &1900888292
Transform:
  m_ObjectHideFlags: 0
  m_PrefabParentObject: {fileID: 0}
  m_PrefabInternal: {fileID: 0}
  m_GameObject: {fileID: 1900888288}
  m_LocalRotation: {x: 0, y: 0, z: 0, w: 1}
  m_LocalPosition: {x: .0481194556, y: 1.69394851, z: .0442376211}
  m_LocalScale: {x: 1, y: 1, z: 1}
  m_Children: []
  m_Father: {fileID: 748654864}
  m_RootOrder: 0
--- !u!1 &1992884417
GameObject:
  m_ObjectHideFlags: 0
  m_PrefabParentObject: {fileID: 0}
  m_PrefabInternal: {fileID: 0}
  serializedVersion: 4
  m_Component:
  - 4: {fileID: 1992884419}
  - 108: {fileID: 1992884418}
  m_Layer: 0
  m_Name: Directional light
  m_TagString: Untagged
  m_Icon: {fileID: 0}
  m_NavMeshLayer: 0
  m_StaticEditorFlags: 0
  m_IsActive: 1
--- !u!108 &1992884418
Light:
  m_ObjectHideFlags: 0
  m_PrefabParentObject: {fileID: 0}
  m_PrefabInternal: {fileID: 0}
  m_GameObject: {fileID: 1992884417}
  m_Enabled: 1
  serializedVersion: 6
  m_Type: 1
  m_Color: {r: 1, g: 1, b: 1, a: 1}
  m_Intensity: 1
  m_Range: 10
  m_SpotAngle: 30
  m_CookieSize: 10
  m_Shadows:
    m_Type: 0
    m_Resolution: -1
    m_Strength: 1
    m_Bias: .0500000007
    m_NormalBias: .400000006
  m_Cookie: {fileID: 0}
  m_DrawHalo: 0
  m_Flare: {fileID: 0}
  m_RenderMode: 0
  m_CullingMask:
    serializedVersion: 2
    m_Bits: 4294967295
  m_Lightmapping: 1
  m_BounceIntensity: 1
  m_ShadowRadius: 0
  m_ShadowAngle: 0
  m_AreaSize: {x: 1, y: 1}
--- !u!4 &1992884419
Transform:
  m_ObjectHideFlags: 0
  m_PrefabParentObject: {fileID: 0}
  m_PrefabInternal: {fileID: 0}
  m_GameObject: {fileID: 1992884417}
  m_LocalRotation: {x: .408217937, y: -.234569728, z: .109381661, w: .875426114}
  m_LocalPosition: {x: .270077825, y: -.664400995, z: .28910327}
  m_LocalScale: {x: 1, y: 1, z: 1}
  m_Children: []
  m_Father: {fileID: 0}
  m_RootOrder: 1
